project_SRA/design_logic/module componet/ALU/simulation/qsim/ALU.msim.vcd
$comment
	File created using the following command:
		vcd file ALU.msim.vcd -direction
$end
$date
	Sat Jun 04 15:58:51 2022
$end
$version
	ModelSim Version 10.1d
$end
$timescale
	1ps
$end
$scope module Multi16bit_vlg_vec_tst $end
$var reg 16 ! A [15:0] $end
$var reg 4 " B [3:0] $end
$var wire 1 # O [15] $end
$var wire 1 $ O [14] $end
$var wire 1 % O [13] $end
$var wire 1 & O [12] $end
$var wire 1 ' O [11] $end
$var wire 1 ( O [10] $end
$var wire 1 ) O [9] $end
$var wire 1 * O [8] $end
$var wire 1 + O [7] $end
$var wire 1 , O [6] $end
$var wire 1 - O [5] $end
$var wire 1 . O [4] $end
$var wire 1 / O [3] $end
$var wire 1 0 O [2] $end
$var wire 1 1 O [1] $end
$var wire 1 2 O [0] $end
$var wire 1 3 sampler $end
$scope module i1 $end
$var wire 1 4 gnd $end
$var wire 1 5 vcc $end
$var wire 1 6 unknown $end
$var tri1 1 7 devclrn $end
$var tri1 1 8 devpor $end
$var tri1 1 9 devoe $end
$var wire 1 : inst15|instAdder8Bit0|inst0|instFAdder1Bit00|inst4~0_combout $end
$var wire 1 ; inst15|instAdder8Bit0|inst00|instFAdder1Bit1|inst4~0_combout $end
$var wire 1 < inst15|instAdder8Bit0|inst00|instFAdder1Bit00|inst4~0_combout $end
$var wire 1 = inst15|instAdder8Bit00|inst0|instFAdder1Bit0|inst4~0_combout $end
$var wire 1 > inst15|instAdder8Bit0|inst00|instFAdder1Bit0|inst4~0_combout $end
$var wire 1 ? inst15|instAdder8Bit0|inst00|instFAdder1Bit2|inst4~0_combout $end
$var wire 1 @ inst7|instAdder8Bit0|inst00|instFAdder1Bit00|inst4~0_combout $end
$var wire 1 A inst7|instAdder8Bit0|inst00|instFAdder1Bit1|inst4~0_combout $end
$var wire 1 B inst7|instAdder8Bit0|inst0|instFAdder1Bit00|inst4~0_combout $end
$var wire 1 C inst7|instAdder8Bit0|inst0|instFAdder1Bit1|inst4~0_combout $end
$var wire 1 D inst8[15]~0_combout $end
$var wire 1 E inst11|instAdder8Bit0|inst0|instFAdder1Bit1|inst4~0_combout $end
$var wire 1 F inst12[15]~0_combout $end
$var wire 1 G inst4[15]~16_combout $end
$var wire 1 H inst4[15]~17_combout $end
$var wire 1 I inst7|instAdder8Bit0|inst0|instFAdder1Bit1|inst1~combout $end
$var wire 1 J inst4[14]~23_combout $end
$var wire 1 K inst16[14]~0_combout $end
$var wire 1 L inst8[13]~1_combout $end
$var wire 1 M inst12[13]~1_combout $end
$var wire 1 N inst4[13]~30_combout $end
$var wire 1 O inst7|instAdder8Bit0|inst0|instFAdder1Bit00|inst1~combout $end
$var wire 1 P inst4[12]~33_combout $end
$var wire 1 Q inst16[12]~2_combout $end
$var wire 1 R inst8[11]~2_combout $end
$var wire 1 S inst12[11]~2_combout $end
$var wire 1 T inst4[11]~40_combout $end
$var wire 1 U inst7|instAdder8Bit0|inst00|instFAdder1Bit1|inst1~combout $end
$var wire 1 V inst4[10]~43_combout $end
$var wire 1 W inst16[10]~4_combout $end
$var wire 1 X inst8[9]~3_combout $end
$var wire 1 Y inst4[9]~50_combout $end
$var wire 1 Z inst4[8]~53_combout $end
$var wire 1 [ inst12[8]~3_combout $end
$var wire 1 \ inst11|instAdder8Bit00|inst0|instFAdder1Bit2|inst1~0_combout $end
$var wire 1 ] inst4[7]~58_combout $end
$var wire 1 ^ inst16[7]~7_combout $end
$var wire 1 _ inst4[7]~59_combout $end
$var wire 1 ` inst4[6]~63_combout $end
$var wire 1 a inst4[6]~65_combout $end
$var wire 1 b inst11|instAdder8Bit00|inst0|instFAdder1Bit0|inst1~0_combout $end
$var wire 1 c inst4[5]~68_combout $end
$var wire 1 d inst4[5]~71_combout $end
$var wire 1 e inst4[4]~74_combout $end
$var wire 1 f inst9|instAdder8Bit00|inst00|instFAdder1Bit2|inst1~0_combout $end
$var wire 1 g inst4[3]~80_combout $end
$var wire 1 h inst10[2]~5_combout $end
$var wire 1 i inst14[2]~11_combout $end
$var wire 1 j inst6|inst5~combout $end
$var wire 1 k inst13|instSub8BIT00|instSub4BIT00|instSub1BIT2|inst2~0_combout $end
$var wire 1 l inst13|instSub8BIT00|instSub4BIT0|instSub1BIT00|inst2~0_combout $end
$var wire 1 m inst13|instSub8BIT00|instSub4BIT0|instSub1BIT0|inst2~0_combout $end
$var wire 1 n inst13|instSub8BIT00|instSub4BIT0|instSub1BIT1|inst2~0_combout $end
$var wire 1 o inst13|instSub8BIT00|instSub4BIT0|instSub1BIT2|inst2~0_combout $end
$var wire 1 p inst13|instSub8BIT0|instSub4BIT00|instSub1BIT00|inst2~0_combout $end
$var wire 1 q inst13|instSub8BIT0|instSub4BIT00|instSub1BIT0|inst2~0_combout $end
$var wire 1 r inst13|instSub8BIT0|instSub4BIT00|instSub1BIT1|inst2~0_combout $end
$var wire 1 s inst13|instSub8BIT0|instSub4BIT00|instSub1BIT2|inst2~0_combout $end
$var wire 1 t inst13|instSub8BIT0|instSub4BIT0|instSub1BIT00|inst2~0_combout $end
$var wire 1 u inst13|instSub8BIT0|instSub4BIT0|instSub1BIT0|inst2~0_combout $end
$var wire 1 v inst15|instAdder8Bit0|inst0|instFAdder1Bit2|inst1~0_combout $end
$var wire 1 w inst4[15]~13_combout $end
$var wire 1 x inst6|inst7~combout $end
$var wire 1 y inst6|inst8~combout $end
$var wire 1 z inst15|instAdder8Bit0|inst0|instFAdder1Bit00|inst4~1_combout $end
$var wire 1 { inst15|instAdder8Bit0|inst0|instFAdder1Bit0|inst4~0_combout $end
$var wire 1 | inst4[15]~14_combout $end
$var wire 1 } inst4[15]~15_combout $end
$var wire 1 ~ inst6|inst9~combout $end
$var wire 1 !! inst6|inst10~combout $end
$var wire 1 "! inst4[15]~18_combout $end
$var wire 1 #! inst6|instAND0~combout $end
$var wire 1 $! inst9|instAdder8Bit0|inst0|instFAdder1Bit00|inst4~1_combout $end
$var wire 1 %! inst9|instAdder8Bit0|inst0|instFAdder1Bit0|inst4~0_combout $end
$var wire 1 &! inst4[15]~19_combout $end
$var wire 1 '! inst4[15]~20_combout $end
$var wire 1 (! inst4[15]~21_combout $end
$var wire 1 )! inst4[15]~22_combout $end
$var wire 1 *! inst1[0]~4_combout $end
$var wire 1 +! inst14[14]~0_combout $end
$var wire 1 ,! inst10[14]~0_combout $end
$var wire 1 -! inst7|instAdder8Bit00|inst00|instFAdder1Bit2|inst4~0_combout $end
$var wire 1 .! inst7|instAdder8Bit00|inst0|instFAdder1Bit0|inst4~0_combout $end
$var wire 1 /! inst11|instAdder8Bit0|inst00|instFAdder1Bit00|inst4~0_combout $end
$var wire 1 0! inst11|instAdder8Bit0|inst00|instFAdder1Bit1|inst4~0_combout $end
$var wire 1 1! inst11|instAdder8Bit0|inst0|instFAdder1Bit00|inst4~0_combout $end
$var wire 1 2! inst11|instAdder8Bit0|inst0|instFAdder1Bit1|inst1~combout $end
$var wire 1 3! inst6|inst4~combout $end
$var wire 1 4! inst4[14]~24_combout $end
$var wire 1 5! inst4[14]~25_combout $end
$var wire 1 6! inst6|inst6~combout $end
$var wire 1 7! inst4[14]~26_combout $end
$var wire 1 8! inst4[14]~27_combout $end
$var wire 1 9! inst14[13]~1_combout $end
$var wire 1 :! inst15|instAdder8Bit0|inst0|instFAdder1Bit0|inst1~0_combout $end
$var wire 1 ;! inst16[13]~1_combout $end
$var wire 1 <! inst4[13]~28_combout $end
$var wire 1 =! inst6|inst12~combout $end
$var wire 1 >! inst4[13]~29_combout $end
$var wire 1 ?! inst9|instAdder8Bit0|inst0|instFAdder1Bit00|inst4~0_combout $end
$var wire 1 @! inst9|instAdder8Bit0|inst0|instFAdder1Bit0|inst1~combout $end
$var wire 1 A! inst4[13]~31_combout $end
$var wire 1 B! inst4[13]~32_combout $end
$var wire 1 C! inst14[12]~2_combout $end
$var wire 1 D! inst9|instAdder8Bit0|inst00|instFAdder1Bit1|inst4~1_combout $end
$var wire 1 E! inst9|instAdder8Bit0|inst00|instFAdder1Bit2|inst4~0_combout $end
$var wire 1 F! inst10[12]~1_combout $end
$var wire 1 G! inst11|instAdder8Bit0|inst0|instFAdder1Bit00|inst1~combout $end
$var wire 1 H! inst4[12]~34_combout $end
$var wire 1 I! inst4[12]~35_combout $end
$var wire 1 J! inst4[12]~36_combout $end
$var wire 1 K! inst4[12]~37_combout $end
$var wire 1 L! inst14[11]~3_combout $end
$var wire 1 M! inst15|instAdder8Bit0|inst00|instFAdder1Bit1|inst4~1_combout $end
$var wire 1 N! inst15|instAdder8Bit0|inst00|instFAdder1Bit2|inst1~0_combout $end
$var wire 1 O! inst16[11]~3_combout $end
$var wire 1 P! inst4[11]~38_combout $end
$var wire 1 Q! inst4[11]~39_combout $end
$var wire 1 R! inst9|instAdder8Bit0|inst00|instFAdder1Bit1|inst4~0_combout $end
$var wire 1 S! inst9|instAdder8Bit0|inst00|instFAdder1Bit2|inst1~combout $end
$var wire 1 T! inst4[11]~41_combout $end
$var wire 1 U! inst4[11]~42_combout $end
$var wire 1 V! inst14[10]~4_combout $end
$var wire 1 W! inst9|instAdder8Bit0|inst00|instFAdder1Bit00|inst4~1_combout $end
$var wire 1 X! inst9|instAdder8Bit0|inst00|instFAdder1Bit0|inst4~0_combout $end
$var wire 1 Y! inst10[10]~2_combout $end
$var wire 1 Z! inst11|instAdder8Bit0|inst00|instFAdder1Bit1|inst1~combout $end
$var wire 1 [! inst4[10]~44_combout $end
$var wire 1 \! inst4[10]~45_combout $end
$var wire 1 ]! inst4[10]~46_combout $end
$var wire 1 ^! inst4[10]~47_combout $end
$var wire 1 _! inst14[9]~5_combout $end
$var wire 1 `! inst15|instAdder8Bit0|inst00|instFAdder1Bit00|inst4~1_combout $end
$var wire 1 a! inst13|instSub8BIT0|instSub4BIT00|instSub1BIT0|instXOR00|1~0_combout $end
$var wire 1 b! inst16[9]~5_combout $end
$var wire 1 c! inst11|instAdder8Bit0|inst00|instFAdder1Bit0|inst1~0_combout $end
$var wire 1 d! inst4[9]~48_combout $end
$var wire 1 e! inst4[9]~49_combout $end
$var wire 1 f! inst9|instAdder8Bit0|inst00|instFAdder1Bit00|inst4~0_combout $end
$var wire 1 g! inst9|instAdder8Bit0|inst00|instFAdder1Bit0|inst1~combout $end
$var wire 1 h! inst4[9]~51_combout $end
$var wire 1 i! inst4[9]~52_combout $end
$var wire 1 j! inst14[8]~6_combout $end
$var wire 1 k! inst15|instAdder8Bit00|inst0|instFAdder1Bit0|inst4~1_combout $end
$var wire 1 l! inst15|instAdder8Bit00|inst0|instFAdder1Bit1|inst4~0_combout $end
$var wire 1 m! inst15|instAdder8Bit00|inst0|instFAdder1Bit2|inst4~0_combout $end
$var wire 1 n! inst16[8]~6_combout $end
$var wire 1 o! inst9|instAdder8Bit00|inst0|instFAdder1Bit1|inst4~1_combout $end
$var wire 1 p! inst9|instAdder8Bit00|inst0|instFAdder1Bit2|inst4~0_combout $end
$var wire 1 q! inst10[8]~3_combout $end
$var wire 1 r! inst4[8]~54_combout $end
$var wire 1 s! inst4[8]~55_combout $end
$var wire 1 t! inst4[8]~56_combout $end
$var wire 1 u! inst4[8]~57_combout $end
$var wire 1 v! inst14[7]~7_combout $end
$var wire 1 w! inst7|instAdder8Bit00|inst0|instFAdder1Bit1|inst4~0_combout $end
$var wire 1 x! inst6|inst11~combout $end
$var wire 1 y! inst8[7]~4_combout $end
$var wire 1 z! inst4[7]~60_combout $end
$var wire 1 {! inst4[7]~61_combout $end
$var wire 1 |! inst9|instAdder8Bit00|inst0|instFAdder1Bit1|inst4~0_combout $end
$var wire 1 }! inst9|instAdder8Bit00|inst0|instFAdder1Bit2|inst1~combout $end
$var wire 1 ~! inst4[7]~62_combout $end
$var wire 1 !" inst14[6]~8_combout $end
$var wire 1 "" inst13|instSub8BIT00|instSub4BIT0|instSub1BIT1|instXOR00|1~0_combout $end
$var wire 1 #" inst16[6]~8_combout $end
$var wire 1 $" inst9|instAdder8Bit00|inst00|instFAdder1Bit2|inst4~0_combout $end
$var wire 1 %" inst9|instAdder8Bit00|inst0|instFAdder1Bit0|inst4~0_combout $end
$var wire 1 &" inst9|instAdder8Bit00|inst0|instFAdder1Bit0|inst4~1_combout $end
$var wire 1 '" inst10[6]~4_combout $end
$var wire 1 (" inst4[6]~64_combout $end
$var wire 1 )" inst11|instAdder8Bit00|inst0|instFAdder1Bit1|inst1~combout $end
$var wire 1 *" inst4[6]~66_combout $end
$var wire 1 +" inst4[6]~67_combout $end
$var wire 1 ," inst14[5]~9_combout $end
$var wire 1 -" inst15|instAdder8Bit00|inst0|instFAdder1Bit00|inst4~0_combout $end
$var wire 1 ." inst16[5]~9_combout $end
$var wire 1 /" inst4[5]~69_combout $end
$var wire 1 0" inst4[5]~70_combout $end
$var wire 1 1" inst9|instAdder8Bit00|inst0|instFAdder1Bit0|inst1~0_combout $end
$var wire 1 2" inst4[5]~72_combout $end
$var wire 1 3" inst4[5]~73_combout $end
$var wire 1 4" inst9|instAdder8Bit00|inst0|instFAdder1Bit00|inst1~0_combout $end
$var wire 1 5" inst4[4]~75_combout $end
$var wire 1 6" inst4[4]~76_combout $end
$var wire 1 7" inst15|instAdder8Bit00|inst0|instFAdder1Bit00|inst1~combout $end
$var wire 1 8" inst4[4]~77_combout $end
$var wire 1 9" inst4[4]~78_combout $end
$var wire 1 :" inst14[4]~10_combout $end
$var wire 1 ;" inst4[4]~79_combout $end
$var wire 1 <" inst13|instSub8BIT00|instSub4BIT00|instSub1BIT2|instXOR00|1~combout $end
$var wire 1 =" inst4[3]~81_combout $end
$var wire 1 >" inst4[3]~82_combout $end
$var wire 1 ?" inst4[3]~83_combout $end
$var wire 1 @" inst4[3]~84_combout $end
$var wire 1 A" inst11|instAdder8Bit00|inst0|instFAdder1Bit00|inst1~combout $end
$var wire 1 B" inst4[3]~85_combout $end
$var wire 1 C" inst2[2]~1_combout $end
$var wire 1 D" inst11|instAdder8Bit00|inst00|instFAdder1Bit2|inst1~0_combout $end
$var wire 1 E" inst2[2]~2_combout $end
$var wire 1 F" inst2[2]~3_combout $end
$var wire 1 G" inst2[2]~4_combout $end
$var wire 1 H" inst2[2]~5_combout $end
$var wire 1 I" inst2[2]~6_combout $end
$var wire 1 J" inst1[1]~5_combout $end
$var wire 1 K" inst1[1]~7_combout $end
$var wire 1 L" inst1[0]~6_combout $end
$var wire 1 M" B~combout [3] $end
$var wire 1 N" B~combout [2] $end
$var wire 1 O" B~combout [1] $end
$var wire 1 P" B~combout [0] $end
$var wire 1 Q" A~combout [15] $end
$var wire 1 R" A~combout [14] $end
$var wire 1 S" A~combout [13] $end
$var wire 1 T" A~combout [12] $end
$var wire 1 U" A~combout [11] $end
$var wire 1 V" A~combout [10] $end
$var wire 1 W" A~combout [9] $end
$var wire 1 X" A~combout [8] $end
$var wire 1 Y" A~combout [7] $end
$var wire 1 Z" A~combout [6] $end
$var wire 1 [" A~combout [5] $end
$var wire 1 \" A~combout [4] $end
$var wire 1 ]" A~combout [3] $end
$var wire 1 ^" A~combout [2] $end
$var wire 1 _" A~combout [1] $end
$var wire 1 `" A~combout [0] $end
$upscope $end
$upscope $end
$enddefinitions $end
#0
$dumpvars
b10110 !
b0 "
02
01
00
0/
0.
0-
0,
0+
0*
0)
0(
0'
0&
0%
0$
0#
x3
04
15
x6
17
18
19
0:
0;
0<
0=
0>
0?
0@
0A
0B
0C
1D
0E
1F
1G
1H
0I
1J
1K
1L
1M
1N
0O
1P
1Q
1R
1S
1T
0U
1V
1W
1X
1Y
1Z
1[
1\
1]
1^
1_
1`
1a
0b
1c
0d
1e
1f
1g
1h
1i
0j
1k
1l
0m
0n
0o
0p
0q
0r
0s
0t
0u
0v
0w
0x
1y
0z
0{
0|
0}
0~
0!!
1"!
0#!
0$!
0%!
1&!
0'!
1(!
0)!
1*!
1+!
1,!
1-!
1.!
0/!
00!
01!
02!
03!
14!
15!
06!
17!
08!
19!
0:!
1;!
1<!
0=!
1>!
0?!
0@!
0A!
0B!
1C!
0D!
0E!
1F!
0G!
1H!
1I!
1J!
0K!
1L!
0M!
0N!
1O!
1P!
1Q!
0R!
0S!
0T!
0U!
1V!
0W!
0X!
1Y!
0Z!
1[!
1\!
1]!
0^!
1_!
0`!
0a!
1b!
0c!
1d!
1e!
0f!
0g!
0h!
0i!
1j!
1k!
0l!
0m!
1n!
0o!
0p!
1q!
1r!
1s!
0t!
0u!
1v!
0w!
0x!
1y!
1z!
0{!
0|!
0}!
0~!
1!"
0""
1#"
0$"
1%"
0&"
1'"
1("
0)"
0*"
0+"
1,"
1-"
1."
1/"
10"
11"
02"
03"
04"
15"
06"
07"
18"
09"
1:"
0;"
1<"
1="
1>"
1?"
1@"
0A"
0B"
0C"
0D"
1E"
1F"
1G"
1H"
0I"
0J"
0K"
0L"
0P"
0O"
0N"
0M"
0`"
1_"
1^"
0]"
1\"
0["
0Z"
0Y"
0X"
0W"
0V"
0U"
0T"
0S"
0R"
0Q"
$end
#10000
b1 "
1P"
03
1J"
1C"
1~
0y
1K"
1I"
0?"
00"
0z!
0s!
0\!
0I!
05!
0"!
0a
0Y
0T
0N
1B"
16"
1*"
1{!
1t!
1h!
1^!
1T!
1K!
1A!
18!
1}
1d
0@"
0{!
0t!
0]!
0J!
07!
0(!
0*"
0h!
0T!
0A!
19"
1+"
1~!
1u!
1i!
1U!
1B!
1)!
12"
11
10
1/
1(
1&
1$
0B"
0~!
0u!
0^!
0K!
08!
0)!
0+"
0i!
0U!
0B!
1;"
1,
1+
1*
1)
1'
1%
1#
0/
0+
0*
0(
0&
0$
0#
0,
0)
0'
0%
1.
#20000
b11 "
b10 "
0P"
1O"
13
0J"
1!!
0~
0K"
1?"
08"
10"
1@"
09"
13"
01
1B"
0;"
1-
1/
0.
#30000
b11 "
1P"
03
1J"
1x!
0!!
1K"
0E"
0B"
0y!
0e
0d
0Z
0X
0V
0R
0P
0L
0J
0D
18"
1z!
1s!
1\!
1I!
15!
1"!
1a
1Y
1T
1N
0I"
02"
0r!
0e!
0[!
0Q!
0H!
0>!
04!
0H
1t!
1]!
1J!
17!
1(!
1*"
1h!
1T!
1A!
11
0/
03"
0(!
1)!
1+"
00
0)!
0-
1#
1,
0#
#40000
b111 "
b101 "
b100 "
0P"
0O"
1N"
13
0J"
0x!
1=!
0K"
1B"
1y!
1e
1d
1X
1R
1L
1D
0c
0]
1{!
19"
12"
0/"
0_
01
1/
1~!
1;"
0{!
0~!
1+
1.
0+
#50000
b101 "
1P"
03
1J"
0=!
1#!
1K"
1E"
1e!
1Q!
1>!
1c
1]
1Z
1V
1P
1J
1H
05"
0q!
0h!
0Y!
0T!
0F!
0A!
0,!
1I"
1/"
1_
09"
11
13"
1{!
0;"
10
1-
0.
#60000
b111 "
b110 "
0P"
1O"
13
0J"
13!
0#!
0K"
0="
06"
0*"
0d!
0c
0[
0S
0M
0F
15"
1~!
1q!
1h!
1Y!
1T!
1F!
1A!
1,!
1(!
0@"
0+"
0e!
0/"
0t!
0P!
0<!
0G
1r!
1i!
1U!
1B!
1)!
01
1+
0B"
0i!
03"
0Q!
0>!
0H
0,
1)
1'
1%
1#
0U!
0B!
0(!
0/
0)
0-
0)!
0'
0%
0#
#70000
b111 "
1P"
03
1J"
03!
1j
1K"
1="
16"
1*"
1d!
1[!
1H!
14!
1c
1[
1S
1M
1F
0,"
0!"
0j!
0_!
0V!
0L!
0C!
09!
0+!
0i
1@"
19"
1e!
1/"
1t!
1P!
1<!
1G
0H"
11
1B"
1;"
1Q!
1>!
1H
0I"
1(!
1/
1.
00
#80000
b1111 "
b1011 "
b1001 "
b1000 "
0P"
0O"
0N"
1M"
13
0J"
0C"
16!
0j
0K"
0>"
0("
0r!
0d!
0]!
0P!
0J!
0<!
07!
0G
1,"
1!"
1j!
1_!
1V!
1L!
1C!
19!
1+!
1)!
1i
0@"
0e!
0Q!
0>!
0H
13"
1i!
1U!
1B!
1H"
01
1#
0B"
0i!
0U!
0B!
0(!
1-
1)
1'
1%
0)!
0/
0)
0'
0%
0#
#90000
b1001 "
1P"
03
1J"
1C"
06!
1x
1K"
1I"
1("
1r!
1d!
1]!
1P!
1J!
1<!
17!
1G
08"
0."
0n!
0b!
0O!
0;!
0}
0W
0Q
0K
1+"
1e!
1^!
1Q!
1K!
1>!
18!
1H
09"
0/"
0]!
0J!
07!
11
10
1(!
0;"
03"
0^!
0K!
08!
1,
1(
1&
1$
0.
0-
0(
0&
0$
#100000
b1011 "
b1010 "
0P"
1O"
13
0J"
0x
0*!
1>"
18"
1."
1n!
1b!
1O!
1;!
1}
1W
1Q
1K
1L"
z2
z1
z0
z/
z.
z-
z,
z+
z*
z)
z(
z'
z&
z%
z$
z#
1@"
19"
1/"
1u!
1i!
1U!
1B!
1)!
1]!
1J!
17!
1B"
1;"
13"
1^!
1K!
18!
#110000
b110 !
b1110 !
b1010 !
b1011 "
1P"
0^"
1]"
0\"
03
1J"
1D"
1A"
0<"
01"
0%"
1$"
0k!
0-!
1m
0f
17"
0-"
1)"
1&"
1""
1l!
0.!
0l
0&"
14"
0l!
0)"
1b
0\
0m
#120000
b1000 !
b11 "
b1 "
b0 !
b0 "
0P"
0O"
0M"
0_"
0]"
13
0J"
0C"
1y
1*!
0D"
0A"
07"
0$"
1l
0k
0""
0b
0K"
0I"
0B"
06"
0*"
0{!
0t!
0h!
0^!
0T!
0K!
0A!
08!
0}
0d
0L"
04"
1m
0l
12
11
10
1/
1.
1-
1,
1+
1*
1)
1(
1'
1&
1%
1$
1#
09"
0+"
0~!
0u!
0i!
0U!
0B!
0)!
02"
1n
0m
01
00
0/
0(
0&
0$
02
0;"
03"
1o
0n
0,
0+
0*
0)
0'
0%
0#
1p
0o
0.
0-
1q
0p
1r
0q
1s
0r
1t
0s
1u
0t
1w
0u
0w
