project_SRA/design_logic/lib/Mux/simulation/qsim/Mux.msim.vcd
$comment
	File created using the following command:
		vcd file Mux.msim.vcd -direction
$end
$date
	Fri Jun 03 01:03:06 2022
$end
$version
	ModelSim Version 10.1d
$end
$timescale
	1ps
$end
$scope module Mux4To1Shift_vlg_vec_tst $end
$var reg 1 ! D0 $end
$var reg 1 " D1 $end
$var reg 1 # D2 $end
$var reg 1 $ D3 $end
$var reg 2 % S [1:0] $end
$var wire 1 & O $end
$var wire 1 ' sampler $end
$scope module i1 $end
$var wire 1 ( gnd $end
$var wire 1 ) vcc $end
$var wire 1 * unknown $end
$var tri1 1 + devclrn $end
$var tri1 1 , devpor $end
$var tri1 1 - devoe $end
$var wire 1 . D2~combout $end
$var wire 1 / D1~combout $end
$var wire 1 0 D0~combout $end
$var wire 1 1 inst~0_combout $end
$var wire 1 2 D3~combout $end
$var wire 1 3 inst~1_combout $end
$var wire 1 4 S~combout [1] $end
$var wire 1 5 S~combout [0] $end
$upscope $end
$upscope $end
$enddefinitions $end
#0
$dumpvars
1!
0"
0#
0$
b0 %
1&
x'
0(
1)
x*
1+
1,
1-
0.
0/
10
11
02
13
05
04
$end
#10000
0!
b1 %
00
15
0'
01
03
0&
#20000
1#
b11 %
b10 %
1.
05
14
1'
13
1&
#30000
1$
0#
b11 %
12
0.
15
0'
03
11
13
0&
1&
#40000
b1 %
0$
b0 %
05
04
02
1'
01
03
0&
#50000
1"
b1 %
1/
15
0'
11
13
1&
#60000
b11 %
0"
b10 %
05
14
0/
1'
01
03
0&
#70000
b11 %
15
0'
11
#80000
b1 %
b0 %
05
04
1'
01
13
03
1&
0&
#90000
b1 %
15
0'
#100000
b11 %
b10 %
05
14
1'
#110000
b11 %
15
0'
11
#120000
b1 %
b0 %
05
04
1'
01
13
03
1&
0&
#130000
b1 %
15
0'
#140000
b11 %
b10 %
05
14
1'
#150000
b11 %
15
0'
11
#160000
b1 %
b0 %
05
04
1'
01
13
03
1&
0&
#170000
b1 %
15
0'
#180000
b11 %
b10 %
05
14
1'
#190000
b11 %
15
0'
11
#200000
b1 %
b0 %
05
04
1'
01
13
03
1&
0&
#210000
b1 %
15
0'
#220000
b11 %
b10 %
05
14
1'
#230000
b11 %
15
0'
11
#240000
b1 %
b0 %
05
04
1'
01
13
03
1&
0&
#250000
b1 %
15
0'
#260000
b11 %
b10 %
05
14
1'
#270000
b11 %
15
0'
11
#280000
b1 %
b0 %
05
04
1'
01
13
03
1&
0&
#290000
b1 %
15
0'
#300000
b11 %
b10 %
05
14
1'
#310000
b11 %
15
0'
11
#320000
b1 %
b0 %
05
04
1'
01
13
03
1&
0&
#330000
b1 %
15
0'
#340000
b11 %
b10 %
05
14
1'
#350000
b11 %
15
0'
11
#360000
b1 %
b0 %
05
04
1'
01
13
03
1&
0&
#370000
b1 %
15
0'
#380000
b11 %
b10 %
05
14
1'
#390000
b11 %
15
0'
11
#400000
b1 %
b0 %
05
04
1'
01
13
03
1&
0&
#410000
b1 %
15
0'
#420000
b11 %
b10 %
05
14
1'
#430000
b11 %
15
0'
11
#440000
b1 %
b0 %
05
04
1'
01
13
03
1&
0&
#450000
b1 %
15
0'
#460000
b11 %
b10 %
05
14
1'
#470000
b11 %
15
0'
11
#480000
b1 %
b0 %
05
04
1'
01
13
03
1&
0&
#490000
b1 %
15
0'
#500000
b11 %
b10 %
05
14
1'
#510000
b11 %
15
0'
11
#520000
b1 %
b0 %
05
04
1'
01
13
03
1&
0&
#530000
b1 %
15
0'
#540000
b11 %
b10 %
05
14
1'
#550000
b11 %
15
0'
11
#560000
b1 %
b0 %
05
04
1'
01
13
03
1&
0&
#570000
b1 %
15
0'
#580000
b11 %
b10 %
05
14
1'
#590000
b11 %
15
0'
11
#600000
b1 %
b0 %
05
04
1'
01
13
03
1&
0&
#610000
b1 %
15
0'
#620000
b11 %
b10 %
05
14
1'
#630000
b11 %
15
0'
11
#640000
b1 %
b0 %
05
04
1'
01
13
03
1&
0&
#650000
b1 %
15
0'
#660000
b11 %
b10 %
05
14
1'
#670000
b11 %
15
0'
11
#680000
b1 %
b0 %
05
04
1'
01
13
03
1&
0&
#690000
b1 %
15
0'
#700000
b11 %
b10 %
05
14
1'
#710000
b11 %
15
0'
11
#720000
b1 %
b0 %
05
04
1'
01
13
03
1&
0&
#730000
b1 %
15
0'
#740000
b11 %
b10 %
05
14
1'
#750000
b11 %
15
0'
11
#760000
b1 %
b0 %
05
04
1'
01
13
03
1&
0&
#770000
b1 %
15
0'
#780000
b11 %
b10 %
05
14
1'
#790000
b11 %
15
0'
11
#800000
b1 %
b0 %
05
04
1'
01
13
03
1&
0&
#810000
b1 %
15
0'
#820000
b11 %
b10 %
05
14
1'
#830000
b11 %
15
0'
11
#840000
b1 %
b0 %
05
04
1'
01
13
03
1&
0&
#850000
b1 %
15
0'
#860000
b11 %
b10 %
05
14
1'
#870000
b11 %
15
0'
11
#880000
b1 %
b0 %
05
04
1'
01
13
03
1&
0&
#890000
b1 %
15
0'
#900000
b11 %
b10 %
05
14
1'
#910000
b11 %
15
0'
11
#920000
b1 %
b0 %
05
04
1'
01
13
03
1&
0&
#930000
b1 %
15
0'
#940000
b11 %
b10 %
05
14
1'
#950000
b11 %
15
0'
11
#960000
b1 %
b0 %
05
04
1'
01
13
03
1&
0&
#970000
b1 %
15
0'
#980000
b11 %
b10 %
05
14
1'
#990000
b11 %
15
0'
11
