project_SRA/design_logic/module componet/Latch/simulation/qsim/Latch.msim.vcd
$comment
	File created using the following command:
		vcd file Latch.msim.vcd -direction
$end
$date
	Sun Jun 05 00:37:17 2022
$end
$version
	ModelSim Version 10.1d
$end
$timescale
	1ps
$end
$scope module Latch16bit_vlg_vec_tst $end
$var reg 16 ! D [15:0] $end
$var reg 1 " EN $end
$var wire 1 # Q [15] $end
$var wire 1 $ Q [14] $end
$var wire 1 % Q [13] $end
$var wire 1 & Q [12] $end
$var wire 1 ' Q [11] $end
$var wire 1 ( Q [10] $end
$var wire 1 ) Q [9] $end
$var wire 1 * Q [8] $end
$var wire 1 + Q [7] $end
$var wire 1 , Q [6] $end
$var wire 1 - Q [5] $end
$var wire 1 . Q [4] $end
$var wire 1 / Q [3] $end
$var wire 1 0 Q [2] $end
$var wire 1 1 Q [1] $end
$var wire 1 2 Q [0] $end
$var wire 1 3 sampler $end
$scope module i1 $end
$var wire 1 4 gnd $end
$var wire 1 5 vcc $end
$var wire 1 6 unknown $end
$var tri1 1 7 devclrn $end
$var tri1 1 8 devpor $end
$var tri1 1 9 devoe $end
$var wire 1 : EN~combout $end
$var wire 1 ; inst1|inst0~combout $end
$var wire 1 < inst1|inst1~combout $end
$var wire 1 = inst1|inst2~combout $end
$var wire 1 > inst1|inst3~combout $end
$var wire 1 ? inst1|inst4~combout $end
$var wire 1 @ inst1|inst5~combout $end
$var wire 1 A inst1|inst6~combout $end
$var wire 1 B inst1|inst7~combout $end
$var wire 1 C inst0|inst0~combout $end
$var wire 1 D inst0|inst1~combout $end
$var wire 1 E inst0|inst2~combout $end
$var wire 1 F inst0|inst3~combout $end
$var wire 1 G inst0|inst4~combout $end
$var wire 1 H inst0|inst5~combout $end
$var wire 1 I inst0|inst6~combout $end
$var wire 1 J inst0|inst7~combout $end
$var wire 1 K D~combout [15] $end
$var wire 1 L D~combout [14] $end
$var wire 1 M D~combout [13] $end
$var wire 1 N D~combout [12] $end
$var wire 1 O D~combout [11] $end
$var wire 1 P D~combout [10] $end
$var wire 1 Q D~combout [9] $end
$var wire 1 R D~combout [8] $end
$var wire 1 S D~combout [7] $end
$var wire 1 T D~combout [6] $end
$var wire 1 U D~combout [5] $end
$var wire 1 V D~combout [4] $end
$var wire 1 W D~combout [3] $end
$var wire 1 X D~combout [2] $end
$var wire 1 Y D~combout [1] $end
$var wire 1 Z D~combout [0] $end
$upscope $end
$upscope $end
$enddefinitions $end
#0
$dumpvars
b0 !
0"
x2
x1
x0
x/
x.
x-
x,
x+
x*
x)
x(
x'
x&
x%
x$
x#
x3
04
15
x6
17
18
19
0:
x;
x<
x=
x>
x?
x@
xA
xB
xC
xD
xE
xF
xG
xH
xI
xJ
0Z
0Y
0X
0W
0V
0U
0T
0S
0R
0Q
0P
0O
0N
0M
0L
0K
$end
#10000
b1000000000 !
b1100000000 !
b1110000000 !
b1111000000 !
b1111100000 !
b1111101000 !
1W
1U
1T
1S
1R
1Q
03
#20000
b11111101000 !
b11111111000 !
b11111011000 !
b11111010000 !
0W
1V
0U
1P
13
#30000
b111111010000 !
b111110010000 !
b101110010000 !
b101110110000 !
b101110111000 !
1W
1U
0T
0P
1O
03
#40000
b101110101000 !
b111110101000 !
b111110100000 !
0W
0V
1P
13
#50000
b1111110100000 !
b1011110100000 !
b1011110000000 !
b1001110000000 !
b1001110001000 !
1W
0U
0P
0O
1N
03
#60000
b1001100001000 !
b1001101001000 !
b1001101011000 !
b1001101111000 !
b1011101111000 !
b1011101110000 !
0W
1V
1U
1T
0S
1P
13
#70000
b1111101110000 !
b1111101010000 !
b1101101010000 !
b1101101011000 !
1W
0U
0P
1O
03
#80000
b1101101001000 !
b1111101001000 !
b1111101000000 !
0W
0V
1P
13
#90000
b11111101000000 !
b10111101000000 !
b10111100000000 !
b10011100000000 !
b10011100100000 !
b10001100100000 !
b10001100101000 !
1W
1U
0T
0P
0O
0N
1M
03
#100000
b10001100111000 !
b10001100011000 !
b10011100011000 !
b10011100010000 !
0W
1V
0U
1P
13
#110000
b10011000010000 !
b10011010010000 !
b10011011010000 !
b10111011010000 !
b10111011110000 !
b10101011110000 !
b10101011111000 !
1W
1U
1T
1S
0R
0P
1O
03
#120000
b10101011101000 !
b10111011101000 !
b10111011100000 !
0W
0V
1P
13
#130000
b11111011100000 !
b11011011100000 !
b11011011000000 !
b11001011000000 !
b11001011001000 !
1W
0U
0P
0O
1N
03
#140000
1"
b11001010001000 !
b11001010011000 !
b11001010111000 !
b11011010111000 !
b11011010110000 !
1:
0W
1V
1U
0T
1P
13
0J
0I
0H
0G
1F
1E
0D
1C
0B
1A
1@
0?
1>
1=
0<
0;
02
01
00
0/
1.
1-
0,
1+
0*
1)
1(
0'
1&
1%
0$
0#
#150000
b11111010110000 !
b11111010010000 !
b11101010010000 !
b11101010011000 !
1W
0U
0P
1O
03
1G
0E
0@
1?
1/
0-
0(
1'
#160000
b11101010001000 !
b11111010001000 !
b11111010000000 !
0W
0V
1P
13
0G
0F
1@
0/
0.
1(
#170000
b111111010000000 !
b101111010000000 !
b101111000000000 !
b100111000000000 !
b100111001000000 !
b100011001000000 !
b100011001100000 !
b100001001100000 !
b100001001101000 !
1W
1U
1T
0S
0P
0O
0N
0M
1L
03
1G
1E
1D
0C
0@
0?
0>
0=
1<
1/
1-
1,
0+
0(
0'
0&
0%
1$
#180000
b100001001111000 !
b100001001011000 !
b100011001011000 !
b100011001010000 !
0W
1V
0U
1P
13
0G
1F
0E
1@
0/
1.
0-
1(
#190000
b100011000010000 !
b100111000010000 !
b100111000110000 !
b100101000110000 !
b100101000111000 !
1W
1U
0T
0P
1O
03
1G
1E
0D
0@
1?
1/
1-
0,
0(
1'
#200000
b100101000101000 !
b100111000101000 !
b100111000100000 !
0W
0V
1P
13
0G
0F
1@
0/
0.
1(
#210000
b101111000100000 !
b101011000100000 !
b101011000000000 !
b101001000000000 !
b101001000001000 !
1W
0U
0P
0O
1N
03
1G
0E
0@
0?
1>
1/
0-
0(
0'
1&
#220000
b101000000001000 !
b101000100001000 !
b101000110001000 !
b101000111001000 !
b101000111011000 !
b101000111111000 !
b101010111111000 !
b101010111110000 !
0W
1V
1U
1T
1S
1R
0Q
1P
13
0G
1F
1E
1D
1C
1B
0A
1@
0/
1.
1-
1,
1+
1*
0)
1(
#230000
b101110111110000 !
b101110111010000 !
b101100111010000 !
b101100111011000 !
1W
0U
0P
1O
03
1G
0E
0@
1?
1/
0-
0(
1'
#240000
b101100111001000 !
b101110111001000 !
b101110111000000 !
0W
0V
1P
13
0G
0F
1@
0/
0.
1(
#250000
b111110111000000 !
b110110111000000 !
b110110110000000 !
b110010110000000 !
b110010110100000 !
b110000110100000 !
b110000110101000 !
1W
1U
0T
0P
0O
0N
1M
03
1G
1E
0D
0@
0?
0>
1=
1/
1-
0,
0(
0'
0&
1%
#260000
b110000110111000 !
b110000110011000 !
b110010110011000 !
b110010110010000 !
0W
1V
0U
1P
13
0G
1F
0E
1@
0/
1.
0-
1(
#270000
b110010100010000 !
b110010101010000 !
b110110101010000 !
b110110101110000 !
b110100101110000 !
b110100101111000 !
1W
1U
1T
0S
0P
1O
03
1G
1E
1D
0C
0@
1?
1/
1-
1,
0+
0(
1'
#280000
0"
b110100101101000 !
b110110101101000 !
b110110101100000 !
0:
0W
0V
1P
13
#290000
b111110101100000 !
b111010101100000 !
b111010101000000 !
b111000101000000 !
b111000101001000 !
1W
0U
0P
0O
1N
03
#300000
b111000100001000 !
b111000100011000 !
b111000100111000 !
b111010100111000 !
b111010100110000 !
0W
1V
1U
0T
1P
13
#310000
b111110100110000 !
b111110100010000 !
b111100100010000 !
b111100100011000 !
1W
0U
0P
1O
03
#320000
b111100100001000 !
b111110100001000 !
b111110100000000 !
0W
0V
1P
13
#330000
b1111110100000000 !
b1011110100000000 !
b1011110000000000 !
b1001110000000000 !
b1001110010000000 !
b1000110010000000 !
b1000110011000000 !
b1000010011000000 !
b1000010011100000 !
b1000000011100000 !
b1000000011101000 !
1W
1U
1T
1S
0R
0P
0O
0N
0M
0L
1K
03
#340000
b1000000011111000 !
b1000000011011000 !
b1000010011011000 !
b1000010011010000 !
0W
1V
0U
1P
13
#350000
b1000010010010000 !
b1000110010010000 !
b1000110010110000 !
b1000100010110000 !
b1000100010111000 !
1W
1U
0T
0P
1O
03
#360000
b1000100010101000 !
b1000110010101000 !
b1000110010100000 !
0W
0V
1P
13
#370000
b1001110010100000 !
b1001010010100000 !
b1001010010000000 !
b1001000010000000 !
b1001000010001000 !
1W
0U
0P
0O
1N
03
#380000
b1001000000001000 !
b1001000001001000 !
b1001000001011000 !
b1001000001111000 !
b1001010001111000 !
b1001010001110000 !
0W
1V
1U
1T
0S
1P
13
#390000
b1001110001110000 !
b1001110001010000 !
b1001100001010000 !
b1001100001011000 !
1W
0U
0P
1O
03
#400000
b1001100001001000 !
b1001110001001000 !
b1001110001000000 !
0W
0V
1P
13
#410000
b1011110001000000 !
b1010110001000000 !
b1010110000000000 !
b1010010000000000 !
b1010010000100000 !
b1010000000100000 !
b1010000000101000 !
1W
1U
0T
0P
0O
0N
1M
03
#420000
b1010000000111000 !
b1010000000011000 !
b1010010000011000 !
b1010010000010000 !
0W
1V
0U
1P
13
#430000
b1010011000010000 !
b1010011100010000 !
b1010011110010000 !
b1010011111010000 !
b1010011111110000 !
b1010011111111000 !
1W
1U
1T
1S
1R
1Q
03
#440000
b1010111111111000 !
b1010111111101000 !
b1010101111101000 !
b1010101111100000 !
0W
0V
0P
1O
13
#450000
b1010101111000000 !
b1010111111000000 !
b1010111111001000 !
1W
0U
1P
03
#460000
b1011111111001000 !
b1011111110001000 !
b1011011110001000 !
b1011011110011000 !
b1011011110111000 !
b1011001110111000 !
b1011001110110000 !
0W
1V
1U
0T
0P
0O
1N
13
#470000
b1011001110010000 !
b1011011110010000 !
b1011011110011000 !
1W
0U
1P
03
#480000
b1011111110011000 !
b1011111110001000 !
b1011101110001000 !
b1011101110000000 !
0W
0V
0P
1O
13
#490000
b1011101100000000 !
b1011101101000000 !
b1011101101100000 !
b1011111101100000 !
b1011111101101000 !
1W
1U
1T
0S
1P
03
#500000
b1111111101101000 !
b1101111101101000 !
b1100111101101000 !
b1100011101101000 !
b1100011101111000 !
b1100011101011000 !
b1100001101011000 !
b1100001101010000 !
0W
1V
0U
0P
0O
0N
0M
1L
13
#510000
b1100001100010000 !
b1100001100110000 !
b1100011100110000 !
b1100011100111000 !
1W
1U
0T
1P
03
#520000
b1100111100111000 !
b1100111100101000 !
b1100101100101000 !
b1100101100100000 !
0W
0V
0P
1O
13
#530000
b1100101100000000 !
b1100111100000000 !
b1100111100001000 !
1W
0U
1P
03
#540000
b1100111000001000 !
b1100111010001000 !
b1101111010001000 !
b1101111011001000 !
b1101011011001000 !
b1101011011011000 !
b1101011011111000 !
b1101001011111000 !
b1101001011110000 !
0W
1V
1U
1T
1S
0R
0P
0O
1N
13
#550000
b1101001011010000 !
b1101011011010000 !
b1101011011011000 !
1W
0U
1P
03
#560000
b1101111011011000 !
b1101111011001000 !
b1101101011001000 !
b1101101011000000 !
0W
0V
0P
1O
13
#570000
b1101101010000000 !
b1101101010100000 !
b1101111010100000 !
b1101111010101000 !
1W
1U
0T
1P
03
#580000
b1111111010101000 !
b1110111010101000 !
b1110011010101000 !
b1110011010111000 !
b1110011010011000 !
b1110001010011000 !
b1110001010010000 !
0W
1V
0U
0P
0O
0N
1M
13
#590000
b1110001000010000 !
b1110001001010000 !
b1110001001110000 !
b1110011001110000 !
b1110011001111000 !
1W
1U
1T
0S
1P
03
#600000
b1110111001111000 !
b1110111001101000 !
b1110101001101000 !
b1110101001100000 !
0W
0V
0P
1O
13
#610000
b1110101001000000 !
b1110111001000000 !
b1110111001001000 !
1W
0U
1P
03
#620000
b1111111001001000 !
b1111111000001000 !
b1111011000001000 !
b1111011000011000 !
b1111011000111000 !
b1111001000111000 !
b1111001000110000 !
0W
1V
1U
0T
0P
0O
1N
13
#630000
b1111001000010000 !
b1111011000010000 !
b1111011000011000 !
1W
0U
1P
03
#640000
b1111111000011000 !
b1111111000001000 !
b1111101000001000 !
b1111101000000000 !
0W
0V
0P
1O
13
#650000
b1111100000000000 !
b1111100100000000 !
b1111100110000000 !
b1111100111000000 !
b1111100111100000 !
b1111110111100000 !
b1111110111101000 !
1W
1U
1T
1S
1R
0Q
1P
03
#660000
b111110111101000 !
b11110111101000 !
b1110111101000 !
b110111101000 !
b10111101000 !
b10111111000 !
b10111011000 !
b111011000 !
b111010000 !
0W
1V
0U
0P
0O
0N
0M
0L
0K
13
#670000
b110010000 !
b110110000 !
b10110110000 !
b10110111000 !
1W
1U
0T
1P
03
#680000
b110110111000 !
b110110101000 !
b100110101000 !
b100110100000 !
0W
0V
0P
1O
13
#690000
b100110000000 !
b110110000000 !
b110110001000 !
1W
0U
1P
03
#700000
b110100001000 !
b1110100001000 !
b1110101001000 !
b1010101001000 !
b1010101011000 !
b1010101111000 !
b1000101111000 !
b1000101110000 !
0W
1V
1U
1T
0S
0P
0O
1N
13
#710000
b1000101010000 !
b1010101010000 !
b1010101011000 !
1W
0U
1P
03
#720000
b1110101011000 !
b1110101001000 !
b1100101001000 !
b1100101000000 !
0W
0V
0P
1O
13
#730000
b1100100000000 !
b1100100100000 !
b1110100100000 !
b1110100101000 !
1W
1U
0T
1P
03
#740000
b11110100101000 !
b10110100101000 !
b10010100101000 !
b10010100111000 !
b10010100011000 !
b10000100011000 !
b10000100010000 !
0W
1V
0U
0P
0O
0N
1M
13
#750000
b10000000010000 !
b10000010010000 !
b10000011010000 !
b10000011110000 !
b10010011110000 !
b10010011111000 !
1W
1U
1T
1S
0R
1P
03
#760000
b10110011111000 !
b10110011101000 !
b10100011101000 !
b10100011100000 !
0W
0V
0P
1O
13
#770000
b10100011000000 !
b10110011000000 !
b10110011001000 !
1W
0U
1P
03
#780000
b11110011001000 !
b11110010001000 !
b11010010001000 !
b11010010011000 !
b11010010111000 !
b11000010111000 !
b11000010110000 !
0W
1V
1U
0T
0P
0O
1N
13
#790000
b11000010010000 !
b11010010010000 !
b11010010011000 !
1W
0U
1P
03
#800000
b11110010011000 !
b11110010001000 !
b11100010001000 !
b11100010000000 !
0W
0V
0P
1O
13
#810000
b11100000000000 !
b11100001000000 !
b11100001100000 !
b11110001100000 !
b11110001101000 !
1W
1U
1T
0S
1P
03
#820000
b111110001101000 !
b101110001101000 !
b100110001101000 !
b100010001101000 !
b100010001111000 !
b100010001011000 !
b100000001011000 !
b100000001010000 !
0W
1V
0U
0P
0O
0N
0M
1L
13
#830000
b100000000010000 !
b100000000110000 !
b100010000110000 !
b100010000111000 !
1W
1U
0T
1P
03
#840000
b100110000111000 !
b100110000101000 !
b100100000101000 !
b100100000100000 !
0W
0V
0P
1O
13
#850000
b100100000000000 !
b100110000000000 !
b100110000001000 !
1W
0U
1P
03
#860000
b100111000001000 !
b100111100001000 !
b100111110001000 !
b100111111001000 !
b100111111011000 !
b100111111111000 !
b100111111110000 !
0W
1V
1U
1T
1S
1R
1Q
13
#870000
b101111111110000 !
b101011111110000 !
b101001111110000 !
b101001111010000 !
b101001111011000 !
1W
0U
0P
0O
1N
03
#880000
b101001111001000 !
b101011111001000 !
b101011111000000 !
0W
0V
1P
13
#890000
b101011110000000 !
b101111110000000 !
b101111110100000 !
b101101110100000 !
b101101110101000 !
1W
1U
0T
0P
1O
03
#900000
b101101110111000 !
b101101110011000 !
b101111110011000 !
b101111110010000 !
0W
1V
0U
1P
13
#910000
b111111110010000 !
b111111100010000 !
b110111100010000 !
b110111101010000 !
b110011101010000 !
b110011101110000 !
b110001101110000 !
b110001101111000 !
1W
1U
1T
0S
0P
0O
0N
1M
03
#920000
b110001101101000 !
b110011101101000 !
b110011101100000 !
0W
0V
1P
13
#930000
b110111101100000 !
b110111101000000 !
b110101101000000 !
b110101101001000 !
1W
0U
0P
1O
03
#940000
b110101100001000 !
b110101100011000 !
b110101100111000 !
b110111100111000 !
b110111100110000 !
0W
1V
1U
0T
1P
13
#950000
b111111100110000 !
b111011100110000 !
b111011100010000 !
b111001100010000 !
b111001100011000 !
1W
0U
0P
0O
1N
03
#960000
b111001100001000 !
b111011100001000 !
b111011100000000 !
0W
0V
1P
13
#970000
b111011000000000 !
b111011010000000 !
b111011011000000 !
b111111011000000 !
b111111011100000 !
b111101011100000 !
b111101011101000 !
1W
1U
1T
1S
0R
0P
1O
03
#980000
b111101011111000 !
b111101011011000 !
b111111011011000 !
b111111011010000 !
0W
1V
0U
1P
13
#990000
b1111111011010000 !
b1011111011010000 !
b1001111011010000 !
b1000111011010000 !
b1000111010010000 !
b1000011010010000 !
b1000011010110000 !
b1000001010110000 !
b1000001010111000 !
1W
1U
0T
0P
0O
0N
0M
0L
1K
03
