project_SRA/design_logic/lib/Shifter/simulation/qsim/SRwPL_8bit.msim.vcd
$comment
	File created using the following command:
		vcd file SRwPL_8bit.msim.vcd -direction
$end
$date
	Mon Jun 13 17:21:09 2022
$end
$version
	ModelSim Version 10.1d
$end
$timescale
	1ps
$end
$scope module ShiftRight1_16bit_vlg_vec_tst $end
$var reg 16 ! I [15:0] $end
$var wire 1 " O [15] $end
$var wire 1 # O [14] $end
$var wire 1 $ O [13] $end
$var wire 1 % O [12] $end
$var wire 1 & O [11] $end
$var wire 1 ' O [10] $end
$var wire 1 ( O [9] $end
$var wire 1 ) O [8] $end
$var wire 1 * O [7] $end
$var wire 1 + O [6] $end
$var wire 1 , O [5] $end
$var wire 1 - O [4] $end
$var wire 1 . O [3] $end
$var wire 1 / O [2] $end
$var wire 1 0 O [1] $end
$var wire 1 1 O [0] $end
$var wire 1 2 sampler $end
$scope module i1 $end
$var wire 1 3 gnd $end
$var wire 1 4 vcc $end
$var wire 1 5 unknown $end
$var tri1 1 6 devclrn $end
$var tri1 1 7 devpor $end
$var tri1 1 8 devoe $end
$var wire 1 9 I~combout [15] $end
$var wire 1 : I~combout [14] $end
$var wire 1 ; I~combout [13] $end
$var wire 1 < I~combout [12] $end
$var wire 1 = I~combout [11] $end
$var wire 1 > I~combout [10] $end
$var wire 1 ? I~combout [9] $end
$var wire 1 @ I~combout [8] $end
$var wire 1 A I~combout [7] $end
$var wire 1 B I~combout [6] $end
$var wire 1 C I~combout [5] $end
$var wire 1 D I~combout [4] $end
$var wire 1 E I~combout [3] $end
$var wire 1 F I~combout [2] $end
$var wire 1 G I~combout [1] $end
$var wire 1 H I~combout [0] $end
$upscope $end
$upscope $end
$enddefinitions $end
#0
$dumpvars
b0 !
01
00
0/
0.
0-
0,
0+
0*
0)
0(
0'
0&
0%
0$
0#
0"
x2
03
14
x5
16
17
18
zH
0G
0F
0E
0D
0C
0B
0A
0@
0?
0>
0=
0<
0;
0:
09
$end
#10000
b1000000000 !
b1100000000 !
b1110000000 !
b1111000000 !
b1111100000 !
b1111110000 !
b1111111000 !
b1111111100 !
b1111111110 !
b1111111111 !
1G
1F
1E
1D
1C
1B
1A
1@
1?
02
11
10
1/
1.
1-
1,
1+
1*
1)
#20000
b11111111111 !
b11111111110 !
1>
12
1(
#30000
b111111111110 !
b111111111100 !
b101111111100 !
b101111111101 !
0G
0>
1=
02
01
0(
1'
#40000
b111111111101 !
b111111111100 !
1>
12
1(
#50000
b1111111111100 !
b1111111111000 !
b1011111111000 !
b1011111111010 !
b1001111111010 !
b1001111111011 !
1G
0F
0>
0=
1<
02
11
00
0(
0'
1&
#60000
b1011111111011 !
b1011111111010 !
1>
12
1(
#70000
b1111111111010 !
b1111111111000 !
b1101111111000 !
b1101111111001 !
0G
0>
1=
02
01
0(
1'
#80000
b1111111111001 !
b1111111111000 !
1>
12
1(
#90000
b11111111111000 !
b11111111110000 !
b10111111110000 !
b10111111110100 !
b10011111110100 !
b10011111110110 !
b10001111110110 !
b10001111110111 !
1G
1F
0E
0>
0=
0<
1;
02
11
10
0/
0(
0'
0&
1%
#100000
b10011111110111 !
b10011111110110 !
1>
12
1(
#110000
b10111111110110 !
b10111111110100 !
b10101111110100 !
b10101111110101 !
0G
0>
1=
02
01
0(
1'
#120000
b10111111110101 !
b10111111110100 !
1>
12
1(
#130000
b11111111110100 !
b11111111110000 !
b11011111110000 !
b11011111110010 !
b11001111110010 !
b11001111110011 !
1G
0F
0>
0=
1<
02
11
00
0(
0'
1&
#140000
b11011111110011 !
b11011111110010 !
1>
12
1(
#150000
b11111111110010 !
b11111111110000 !
b11101111110000 !
b11101111110001 !
0G
0>
1=
02
01
0(
1'
#160000
b11111111110001 !
b11111111110000 !
1>
12
1(
#170000
b111111111110000 !
b111111111100000 !
b101111111100000 !
b101111111101000 !
b100111111101000 !
b100111111101100 !
b100011111101100 !
b100011111101110 !
b100001111101110 !
b100001111101111 !
1G
1F
1E
0D
0>
0=
0<
0;
1:
02
11
10
1/
0.
0(
0'
0&
0%
1$
#180000
b100011111101111 !
b100011111101110 !
1>
12
1(
#190000
b100111111101110 !
b100111111101100 !
b100101111101100 !
b100101111101101 !
0G
0>
1=
02
01
0(
1'
#200000
b100111111101101 !
b100111111101100 !
1>
12
1(
#210000
b101111111101100 !
b101111111101000 !
b101011111101000 !
b101011111101010 !
b101001111101010 !
b101001111101011 !
1G
0F
0>
0=
1<
02
11
00
0(
0'
1&
#220000
b101011111101011 !
b101011111101010 !
1>
12
1(
#230000
b101111111101010 !
b101111111101000 !
b101101111101000 !
b101101111101001 !
0G
0>
1=
02
01
0(
1'
#240000
b101111111101001 !
b101111111101000 !
1>
12
1(
#250000
b111111111101000 !
b111111111100000 !
b110111111100000 !
b110111111100100 !
b110011111100100 !
b110011111100110 !
b110001111100110 !
b110001111100111 !
1G
1F
0E
0>
0=
0<
1;
02
11
10
0/
0(
0'
0&
1%
#260000
b110011111100111 !
b110011111100110 !
1>
12
1(
#270000
b110111111100110 !
b110111111100100 !
b110101111100100 !
b110101111100101 !
0G
0>
1=
02
01
0(
1'
#280000
b110111111100101 !
b110111111100100 !
1>
12
1(
#290000
b111111111100100 !
b111111111100000 !
b111011111100000 !
b111011111100010 !
b111001111100010 !
b111001111100011 !
1G
0F
0>
0=
1<
02
11
00
0(
0'
1&
#300000
b111011111100011 !
b111011111100010 !
1>
12
1(
#310000
b111111111100010 !
b111111111100000 !
b111101111100000 !
b111101111100001 !
0G
0>
1=
02
01
0(
1'
#320000
b111111111100001 !
b111111111100000 !
1>
12
1(
#330000
b1111111111100000 !
b1111111111000000 !
b1011111111000000 !
b1011111111010000 !
b1001111111010000 !
b1001111111011000 !
b1000111111011000 !
b1000111111011100 !
b1000011111011100 !
b1000011111011110 !
b1000001111011110 !
b1000001111011111 !
1G
1F
1E
1D
0C
0>
0=
0<
0;
0:
19
02
11
10
1/
1.
0-
0(
0'
0&
0%
0$
1#
#340000
b1000011111011111 !
b1000011111011110 !
1>
12
1(
#350000
b1000111111011110 !
b1000111111011100 !
b1000101111011100 !
b1000101111011101 !
0G
0>
1=
02
01
0(
1'
#360000
b1000111111011101 !
b1000111111011100 !
1>
12
1(
#370000
b1001111111011100 !
b1001111111011000 !
b1001011111011000 !
b1001011111011010 !
b1001001111011010 !
b1001001111011011 !
1G
0F
0>
0=
1<
02
11
00
0(
0'
1&
#380000
b1001011111011011 !
b1001011111011010 !
1>
12
1(
#390000
b1001111111011010 !
b1001111111011000 !
b1001101111011000 !
b1001101111011001 !
0G
0>
1=
02
01
0(
1'
#400000
b1001111111011001 !
b1001111111011000 !
1>
12
1(
#410000
b1011111111011000 !
b1011111111010000 !
b1010111111010000 !
b1010111111010100 !
b1010011111010100 !
b1010011111010110 !
b1010001111010110 !
b1010001111010111 !
1G
1F
0E
0>
0=
0<
1;
02
11
10
0/
0(
0'
0&
1%
#420000
b1010011111010111 !
b1010011111010110 !
1>
12
1(
#430000
b1010111111010110 !
b1010111111010100 !
b1010101111010100 !
b1010101111010101 !
0G
0>
1=
02
01
0(
1'
#440000
b1010111111010101 !
b1010111111010100 !
1>
12
1(
#450000
b1011111111010100 !
b1011111111010000 !
b1011011111010000 !
b1011011111010010 !
b1011001111010010 !
b1011001111010011 !
1G
0F
0>
0=
1<
02
11
00
0(
0'
1&
#460000
b1011011111010011 !
b1011011111010010 !
1>
12
1(
#470000
b1011111111010010 !
b1011111111010000 !
b1011101111010000 !
b1011101111010001 !
0G
0>
1=
02
01
0(
1'
#480000
b1011111111010001 !
b1011111111010000 !
1>
12
1(
#490000
b1111111111010000 !
b1111111111000000 !
b1101111111000000 !
b1101111111001000 !
b1100111111001000 !
b1100111111001100 !
b1100011111001100 !
b1100011111001110 !
b1100001111001110 !
b1100001111001111 !
1G
1F
1E
0D
0>
0=
0<
0;
1:
02
11
10
1/
0.
0(
0'
0&
0%
1$
#500000
b1100011111001111 !
b1100011111001110 !
1>
12
1(
#510000
b1100111111001110 !
b1100111111001100 !
b1100101111001100 !
b1100101111001101 !
0G
0>
1=
02
01
0(
1'
#520000
b1100111111001101 !
b1100111111001100 !
1>
12
1(
#530000
b1101111111001100 !
b1101111111001000 !
b1101011111001000 !
b1101011111001010 !
b1101001111001010 !
b1101001111001011 !
1G
0F
0>
0=
1<
02
11
00
0(
0'
1&
#540000
b1101011111001011 !
b1101011111001010 !
1>
12
1(
#550000
b1101111111001010 !
b1101111111001000 !
b1101101111001000 !
b1101101111001001 !
0G
0>
1=
02
01
0(
1'
#560000
b1101111111001001 !
b1101111111001000 !
1>
12
1(
#570000
b1111111111001000 !
b1111111111000000 !
b1110111111000000 !
b1110111111000100 !
b1110011111000100 !
b1110011111000110 !
b1110001111000110 !
b1110001111000111 !
1G
1F
0E
0>
0=
0<
1;
02
11
10
0/
0(
0'
0&
1%
#580000
b1110011111000111 !
b1110011111000110 !
1>
12
1(
#590000
b1110111111000110 !
b1110111111000100 !
b1110101111000100 !
b1110101111000101 !
0G
0>
1=
02
01
0(
1'
#600000
b1110111111000101 !
b1110111111000100 !
1>
12
1(
#610000
b1111111111000100 !
b1111111111000000 !
b1111011111000000 !
b1111011111000010 !
b1111001111000010 !
b1111001111000011 !
1G
0F
0>
0=
1<
02
11
00
0(
0'
1&
#620000
b1111011111000011 !
b1111011111000010 !
1>
12
1(
#630000
b1111111111000010 !
b1111111111000000 !
b1111101111000000 !
b1111101111000001 !
0G
0>
1=
02
01
0(
1'
#640000
b1111111111000001 !
b1111111111000000 !
1>
12
1(
#650000
b1111111110000000 !
b111111110000000 !
b111111110100000 !
b11111110100000 !
b11111110110000 !
b1111110110000 !
b1111110111000 !
b111110111000 !
b111110111100 !
b11110111100 !
b11110111110 !
b1110111110 !
b1110111111 !
1G
1F
1E
1D
1C
0B
0>
0=
0<
0;
0:
09
02
11
10
1/
1.
1-
0,
0(
0'
0&
0%
0$
0#
#660000
b11110111111 !
b11110111110 !
1>
12
1(
#670000
b111110111110 !
b111110111100 !
b101110111100 !
b101110111101 !
0G
0>
1=
02
01
0(
1'
#680000
b111110111101 !
b111110111100 !
1>
12
1(
#690000
b1111110111100 !
b1111110111000 !
b1011110111000 !
b1011110111010 !
b1001110111010 !
b1001110111011 !
1G
0F
0>
0=
1<
02
11
00
0(
0'
1&
#700000
b1011110111011 !
b1011110111010 !
1>
12
1(
#710000
b1111110111010 !
b1111110111000 !
b1101110111000 !
b1101110111001 !
0G
0>
1=
02
01
0(
1'
#720000
b1111110111001 !
b1111110111000 !
1>
12
1(
#730000
b11111110111000 !
b11111110110000 !
b10111110110000 !
b10111110110100 !
b10011110110100 !
b10011110110110 !
b10001110110110 !
b10001110110111 !
1G
1F
0E
0>
0=
0<
1;
02
11
10
0/
0(
0'
0&
1%
#740000
b10011110110111 !
b10011110110110 !
1>
12
1(
#750000
b10111110110110 !
b10111110110100 !
b10101110110100 !
b10101110110101 !
0G
0>
1=
02
01
0(
1'
#760000
b10111110110101 !
b10111110110100 !
1>
12
1(
#770000
b11111110110100 !
b11111110110000 !
b11011110110000 !
b11011110110010 !
b11001110110010 !
b11001110110011 !
1G
0F
0>
0=
1<
02
11
00
0(
0'
1&
#780000
b11011110110011 !
b11011110110010 !
1>
12
1(
#790000
b11111110110010 !
b11111110110000 !
b11101110110000 !
b11101110110001 !
0G
0>
1=
02
01
0(
1'
#800000
b11111110110001 !
b11111110110000 !
1>
12
1(
#810000
b111111110110000 !
b111111110100000 !
b101111110100000 !
b101111110101000 !
b100111110101000 !
b100111110101100 !
b100011110101100 !
b100011110101110 !
b100001110101110 !
b100001110101111 !
1G
1F
1E
0D
0>
0=
0<
0;
1:
02
11
10
1/
0.
0(
0'
0&
0%
1$
#820000
b100011110101111 !
b100011110101110 !
1>
12
1(
#830000
b100111110101110 !
b100111110101100 !
b100101110101100 !
b100101110101101 !
0G
0>
1=
02
01
0(
1'
#840000
b100111110101101 !
b100111110101100 !
1>
12
1(
#850000
b101111110101100 !
b101111110101000 !
b101011110101000 !
b101011110101010 !
b101001110101010 !
b101001110101011 !
1G
0F
0>
0=
1<
02
11
00
0(
0'
1&
#860000
b101011110101011 !
b101011110101010 !
1>
12
1(
#870000
b101111110101010 !
b101111110101000 !
b101101110101000 !
b101101110101001 !
0G
0>
1=
02
01
0(
1'
#880000
b101111110101001 !
b101111110101000 !
1>
12
1(
#890000
b111111110101000 !
b111111110100000 !
b110111110100000 !
b110111110100100 !
b110011110100100 !
b110011110100110 !
b110001110100110 !
b110001110100111 !
1G
1F
0E
0>
0=
0<
1;
02
11
10
0/
0(
0'
0&
1%
#900000
b110011110100111 !
b110011110100110 !
1>
12
1(
#910000
b110111110100110 !
b110111110100100 !
b110101110100100 !
b110101110100101 !
0G
0>
1=
02
01
0(
1'
#920000
b110111110100101 !
b110111110100100 !
1>
12
1(
#930000
b111111110100100 !
b111111110100000 !
b111011110100000 !
b111011110100010 !
b111001110100010 !
b111001110100011 !
1G
0F
0>
0=
1<
02
11
00
0(
0'
1&
#940000
b111011110100011 !
b111011110100010 !
1>
12
1(
#950000
b111111110100010 !
b111111110100000 !
b111101110100000 !
b111101110100001 !
0G
0>
1=
02
01
0(
1'
#960000
b111111110100001 !
b111111110100000 !
1>
12
1(
#970000
b1111111110100000 !
b1111111110000000 !
b1011111110000000 !
b1011111110010000 !
b1001111110010000 !
b1001111110011000 !
b1000111110011000 !
b1000111110011100 !
b1000011110011100 !
b1000011110011110 !
b1000001110011110 !
b1000001110011111 !
1G
1F
1E
1D
0C
0>
0=
0<
0;
0:
19
02
11
10
1/
1.
0-
0(
0'
0&
0%
0$
1#
#980000
b1000011110011111 !
b1000011110011110 !
1>
12
1(
#990000
b1000111110011110 !
b1000111110011100 !
b1000101110011100 !
b1000101110011101 !
0G
0>
1=
02
01
0(
1'
