project_SRA/design_logic/lib/AU/simulation/qsim/ALU.msim.vcd
$comment
	File created using the following command:
		vcd file ALU.msim.vcd -direction
$end
$date
	Wed Jun 15 02:56:10 2022
$end
$version
	ModelSim Version 10.1d
$end
$timescale
	1ps
$end
$scope module MinAbsAddSub_vlg_vec_tst $end
$var reg 2 ! C [1:0] $end
$var reg 16 " R1 [15:0] $end
$var reg 16 # R2 [15:0] $end
$var reg 16 $ R3 [15:0] $end
$var wire 1 % InA [15] $end
$var wire 1 & InA [14] $end
$var wire 1 ' InA [13] $end
$var wire 1 ( InA [12] $end
$var wire 1 ) InA [11] $end
$var wire 1 * InA [10] $end
$var wire 1 + InA [9] $end
$var wire 1 , InA [8] $end
$var wire 1 - InA [7] $end
$var wire 1 . InA [6] $end
$var wire 1 / InA [5] $end
$var wire 1 0 InA [4] $end
$var wire 1 1 InA [3] $end
$var wire 1 2 InA [2] $end
$var wire 1 3 InA [1] $end
$var wire 1 4 InA [0] $end
$var wire 1 5 InB [15] $end
$var wire 1 6 InB [14] $end
$var wire 1 7 InB [13] $end
$var wire 1 8 InB [12] $end
$var wire 1 9 InB [11] $end
$var wire 1 : InB [10] $end
$var wire 1 ; InB [9] $end
$var wire 1 < InB [8] $end
$var wire 1 = InB [7] $end
$var wire 1 > InB [6] $end
$var wire 1 ? InB [5] $end
$var wire 1 @ InB [4] $end
$var wire 1 A InB [3] $end
$var wire 1 B InB [2] $end
$var wire 1 C InB [1] $end
$var wire 1 D InB [0] $end
$var wire 1 E InI0 [15] $end
$var wire 1 F InI0 [14] $end
$var wire 1 G InI0 [13] $end
$var wire 1 H InI0 [12] $end
$var wire 1 I InI0 [11] $end
$var wire 1 J InI0 [10] $end
$var wire 1 K InI0 [9] $end
$var wire 1 L InI0 [8] $end
$var wire 1 M InI0 [7] $end
$var wire 1 N InI0 [6] $end
$var wire 1 O InI0 [5] $end
$var wire 1 P InI0 [4] $end
$var wire 1 Q InI0 [3] $end
$var wire 1 R InI0 [2] $end
$var wire 1 S InI0 [1] $end
$var wire 1 T InI0 [0] $end
$var wire 1 U InI1 [15] $end
$var wire 1 V InI1 [14] $end
$var wire 1 W InI1 [13] $end
$var wire 1 X InI1 [12] $end
$var wire 1 Y InI1 [11] $end
$var wire 1 Z InI1 [10] $end
$var wire 1 [ InI1 [9] $end
$var wire 1 \ InI1 [8] $end
$var wire 1 ] InI1 [7] $end
$var wire 1 ^ InI1 [6] $end
$var wire 1 _ InI1 [5] $end
$var wire 1 ` InI1 [4] $end
$var wire 1 a InI1 [3] $end
$var wire 1 b InI1 [2] $end
$var wire 1 c InI1 [1] $end
$var wire 1 d InI1 [0] $end
$var wire 1 e O [15] $end
$var wire 1 f O [14] $end
$var wire 1 g O [13] $end
$var wire 1 h O [12] $end
$var wire 1 i O [11] $end
$var wire 1 j O [10] $end
$var wire 1 k O [9] $end
$var wire 1 l O [8] $end
$var wire 1 m O [7] $end
$var wire 1 n O [6] $end
$var wire 1 o O [5] $end
$var wire 1 p O [4] $end
$var wire 1 q O [3] $end
$var wire 1 r O [2] $end
$var wire 1 s O [1] $end
$var wire 1 t O [0] $end
$var wire 1 u sampler $end
$scope module i1 $end
$var wire 1 v gnd $end
$var wire 1 w vcc $end
$var wire 1 x unknown $end
$var tri1 1 y devclrn $end
$var tri1 1 z devpor $end
$var tri1 1 { devoe $end
$var wire 1 | inst|instAdder8Bit00|inst0|instFAdder1Bit0|inst4~0_combout $end
$var wire 1 } inst23~0_combout $end
$var wire 1 ~ inst|instAdder8Bit00|inst00|instFAdder1Bit00|inst3~combout $end
$var wire 1 !! inst|instAdder8Bit00|inst00|instFAdder1Bit0|inst4~0_combout $end
$var wire 1 "! inst4|instMux8Bit0|instMux401|instOR0~0_combout $end
$var wire 1 #! inst|instAdder8Bit00|inst00|instFAdder1Bit1|inst4~0_combout $end
$var wire 1 $! inst4|instMux8Bit0|instMux401|instOR00~0_combout $end
$var wire 1 %! inst|instAdder8Bit00|inst00|instFAdder1Bit2|inst4~0_combout $end
$var wire 1 &! inst|instAdder8Bit00|inst0|instFAdder1Bit0|inst4~1_combout $end
$var wire 1 '! inst|instAdder8Bit00|inst0|instFAdder1Bit0|inst4~2_combout $end
$var wire 1 (! inst4|instMux8Bit0|instMux400|instOR0~0_combout $end
$var wire 1 )! inst|instAdder8Bit00|inst0|instFAdder1Bit1|inst4~0_combout $end
$var wire 1 *! inst4|instMux8Bit0|instMux400|instOR00~0_combout $end
$var wire 1 +! inst|instAdder8Bit00|inst0|instFAdder1Bit2|inst4~0_combout $end
$var wire 1 ,! inst4|instMux8Bit00|instMux401|instOR2~0_combout $end
$var wire 1 -! inst|instAdder8Bit0|inst00|instFAdder1Bit00|inst4~0_combout $end
$var wire 1 .! inst4|instMux8Bit00|instMux401|instOR1~0_combout $end
$var wire 1 /! inst|instAdder8Bit0|inst00|instFAdder1Bit0|inst4~0_combout $end
$var wire 1 0! inst4|instMux8Bit00|instMux401|instOR0~0_combout $end
$var wire 1 1! inst|instAdder8Bit0|inst00|instFAdder1Bit1|inst4~0_combout $end
$var wire 1 2! inst4|instMux8Bit00|instMux401|instOR00~0_combout $end
$var wire 1 3! inst|instAdder8Bit0|inst00|instFAdder1Bit2|inst4~0_combout $end
$var wire 1 4! inst4|instMux8Bit00|instMux400|instOR2~0_combout $end
$var wire 1 5! inst|instAdder8Bit0|inst0|instFAdder1Bit00|inst4~0_combout $end
$var wire 1 6! inst4|instMux8Bit00|instMux400|instOR1~0_combout $end
$var wire 1 7! inst|instAdder8Bit0|inst0|instFAdder1Bit0|inst4~0_combout $end
$var wire 1 8! inst4|instMux8Bit00|instMux400|instOR0~0_combout $end
$var wire 1 9! inst|instAdder8Bit0|inst0|instFAdder1Bit1|inst4~0_combout $end
$var wire 1 :! inst23~1_combout $end
$var wire 1 ;! inst2|instMux8Bit00|instMux400|instOR00~3_combout $end
$var wire 1 <! inst2|instMux8Bit00|instMux400|instOR00~4_combout $end
$var wire 1 =! inst|instAdder8Bit0|inst0|instFAdder1Bit1|inst1~8_combout $end
$var wire 1 >! inst2|instMux8Bit00|instMux400|instOR0~0_combout $end
$var wire 1 ?! inst|instAdder8Bit0|inst0|instFAdder1Bit0|inst1~0_combout $end
$var wire 1 @! inst2|instMux8Bit00|instMux400|instOR1~0_combout $end
$var wire 1 A! inst|instAdder8Bit0|inst0|instFAdder1Bit00|inst1~combout $end
$var wire 1 B! inst2|instMux8Bit00|instMux400|instOR2~2_combout $end
$var wire 1 C! inst|instAdder8Bit0|inst00|instFAdder1Bit2|inst1~2_combout $end
$var wire 1 D! inst2|instMux8Bit00|instMux401|instOR00~0_combout $end
$var wire 1 E! inst|instAdder8Bit0|inst00|instFAdder1Bit1|inst1~0_combout $end
$var wire 1 F! inst2|instMux8Bit00|instMux401|instOR0~0_combout $end
$var wire 1 G! inst|instAdder8Bit0|inst00|instFAdder1Bit0|inst1~8_combout $end
$var wire 1 H! inst2|instMux8Bit00|instMux401|instOR1~0_combout $end
$var wire 1 I! inst|instAdder8Bit0|inst00|instFAdder1Bit00|inst1~combout $end
$var wire 1 J! inst2|instMux8Bit00|instMux401|instOR2~2_combout $end
$var wire 1 K! inst|instAdder8Bit00|inst0|instFAdder1Bit2|inst1~0_combout $end
$var wire 1 L! inst2|instMux8Bit0|instMux400|instOR00~0_combout $end
$var wire 1 M! inst|instAdder8Bit00|inst0|instFAdder1Bit1|inst1~combout $end
$var wire 1 N! inst2|instMux8Bit0|instMux400|instOR0~2_combout $end
$var wire 1 O! inst4|instMux8Bit0|instMux400|instOR2~0_combout $end
$var wire 1 P! inst|instAdder8Bit00|inst0|instFAdder1Bit00|inst4~0_combout $end
$var wire 1 Q! inst|instAdder8Bit00|inst0|instFAdder1Bit0|inst1~0_combout $end
$var wire 1 R! inst2|instMux8Bit0|instMux400|instOR1~0_combout $end
$var wire 1 S! inst|instAdder8Bit00|inst0|instFAdder1Bit00|inst1~combout $end
$var wire 1 T! inst2|instMux8Bit0|instMux400|instOR2~2_combout $end
$var wire 1 U! inst|instAdder8Bit00|inst00|instFAdder1Bit2|inst1~2_combout $end
$var wire 1 V! inst2|instMux8Bit0|instMux401|instOR00~0_combout $end
$var wire 1 W! inst|instAdder8Bit00|inst00|instFAdder1Bit1|inst1~combout $end
$var wire 1 X! inst2|instMux8Bit0|instMux401|instOR0~2_combout $end
$var wire 1 Y! inst|instAdder8Bit00|inst00|instFAdder1Bit00|inst2~combout $end
$var wire 1 Z! inst|instAdder8Bit00|inst00|instFAdder1Bit0|inst1~combout $end
$var wire 1 [! inst2|instMux8Bit0|instMux401|instOR1~2_combout $end
$var wire 1 \! inst2|instMux8Bit0|instMux401|instOR2~0_combout $end
$var wire 1 ]! inst4|instMux8Bit00|instMux400|instOR00~0_combout $end
$var wire 1 ^! inst4|instMux8Bit0|instMux400|instOR1~0_combout $end
$var wire 1 _! inst4|instMux8Bit0|instMux401|instOR1~0_combout $end
$var wire 1 `! inst4|instMux8Bit0|instMux401|instOR2~0_combout $end
$var wire 1 a! inst2|instMux8Bit00|instMux400|instOR00~2_combout $end
$var wire 1 b! inst31~0_combout $end
$var wire 1 c! inst28~combout $end
$var wire 1 d! inst3|instMux8Bit00|instMux400|instOR00~0_combout $end
$var wire 1 e! inst3|instMux8Bit00|instMux400|instOR0~0_combout $end
$var wire 1 f! inst3|instMux8Bit00|instMux400|instOR1~0_combout $end
$var wire 1 g! inst3|instMux8Bit00|instMux400|instOR2~0_combout $end
$var wire 1 h! inst3|instMux8Bit00|instMux401|instOR00~0_combout $end
$var wire 1 i! inst3|instMux8Bit00|instMux401|instOR0~0_combout $end
$var wire 1 j! inst3|instMux8Bit00|instMux401|instOR1~0_combout $end
$var wire 1 k! inst3|instMux8Bit00|instMux401|instOR2~0_combout $end
$var wire 1 l! inst3|instMux8Bit0|instMux400|instOR00~0_combout $end
$var wire 1 m! inst3|instMux8Bit0|instMux400|instOR0~0_combout $end
$var wire 1 n! inst3|instMux8Bit0|instMux400|instOR1~0_combout $end
$var wire 1 o! inst3|instMux8Bit0|instMux400|instOR2~0_combout $end
$var wire 1 p! inst3|instMux8Bit0|instMux401|instOR00~0_combout $end
$var wire 1 q! inst3|instMux8Bit0|instMux401|instOR0~0_combout $end
$var wire 1 r! inst3|instMux8Bit0|instMux401|instOR1~0_combout $end
$var wire 1 s! inst3|instMux8Bit0|instMux401|instOR2~0_combout $end
$var wire 1 t! R2~combout [15] $end
$var wire 1 u! R2~combout [14] $end
$var wire 1 v! R2~combout [13] $end
$var wire 1 w! R2~combout [12] $end
$var wire 1 x! R2~combout [11] $end
$var wire 1 y! R2~combout [10] $end
$var wire 1 z! R2~combout [9] $end
$var wire 1 {! R2~combout [8] $end
$var wire 1 |! R2~combout [7] $end
$var wire 1 }! R2~combout [6] $end
$var wire 1 ~! R2~combout [5] $end
$var wire 1 !" R2~combout [4] $end
$var wire 1 "" R2~combout [3] $end
$var wire 1 #" R2~combout [2] $end
$var wire 1 $" R2~combout [1] $end
$var wire 1 %" R2~combout [0] $end
$var wire 1 &" C~combout [1] $end
$var wire 1 '" C~combout [0] $end
$var wire 1 (" inst15 [15] $end
$var wire 1 )" inst15 [14] $end
$var wire 1 *" inst15 [13] $end
$var wire 1 +" inst15 [12] $end
$var wire 1 ," inst15 [11] $end
$var wire 1 -" inst15 [10] $end
$var wire 1 ." inst15 [9] $end
$var wire 1 /" inst15 [8] $end
$var wire 1 0" inst15 [7] $end
$var wire 1 1" inst15 [6] $end
$var wire 1 2" inst15 [5] $end
$var wire 1 3" inst15 [4] $end
$var wire 1 4" inst15 [3] $end
$var wire 1 5" inst15 [2] $end
$var wire 1 6" inst15 [1] $end
$var wire 1 7" inst15 [0] $end
$var wire 1 8" R1~combout [15] $end
$var wire 1 9" R1~combout [14] $end
$var wire 1 :" R1~combout [13] $end
$var wire 1 ;" R1~combout [12] $end
$var wire 1 <" R1~combout [11] $end
$var wire 1 =" R1~combout [10] $end
$var wire 1 >" R1~combout [9] $end
$var wire 1 ?" R1~combout [8] $end
$var wire 1 @" R1~combout [7] $end
$var wire 1 A" R1~combout [6] $end
$var wire 1 B" R1~combout [5] $end
$var wire 1 C" R1~combout [4] $end
$var wire 1 D" R1~combout [3] $end
$var wire 1 E" R1~combout [2] $end
$var wire 1 F" R1~combout [1] $end
$var wire 1 G" R1~combout [0] $end
$var wire 1 H" inst14 [15] $end
$var wire 1 I" inst14 [14] $end
$var wire 1 J" inst14 [13] $end
$var wire 1 K" inst14 [12] $end
$var wire 1 L" inst14 [11] $end
$var wire 1 M" inst14 [10] $end
$var wire 1 N" inst14 [9] $end
$var wire 1 O" inst14 [8] $end
$var wire 1 P" inst14 [7] $end
$var wire 1 Q" inst14 [6] $end
$var wire 1 R" inst14 [5] $end
$var wire 1 S" inst14 [4] $end
$var wire 1 T" inst14 [3] $end
$var wire 1 U" inst14 [2] $end
$var wire 1 V" inst14 [1] $end
$var wire 1 W" inst14 [0] $end
$var wire 1 X" inst18 [15] $end
$var wire 1 Y" inst18 [14] $end
$var wire 1 Z" inst18 [13] $end
$var wire 1 [" inst18 [12] $end
$var wire 1 \" inst18 [11] $end
$var wire 1 ]" inst18 [10] $end
$var wire 1 ^" inst18 [9] $end
$var wire 1 _" inst18 [8] $end
$var wire 1 `" inst18 [7] $end
$var wire 1 a" inst18 [6] $end
$var wire 1 b" inst18 [5] $end
$var wire 1 c" inst18 [4] $end
$var wire 1 d" inst18 [3] $end
$var wire 1 e" inst18 [2] $end
$var wire 1 f" inst18 [1] $end
$var wire 1 g" inst18 [0] $end
$var wire 1 h" R3~combout [15] $end
$var wire 1 i" R3~combout [14] $end
$var wire 1 j" R3~combout [13] $end
$var wire 1 k" R3~combout [12] $end
$var wire 1 l" R3~combout [11] $end
$var wire 1 m" R3~combout [10] $end
$var wire 1 n" R3~combout [9] $end
$var wire 1 o" R3~combout [8] $end
$var wire 1 p" R3~combout [7] $end
$var wire 1 q" R3~combout [6] $end
$var wire 1 r" R3~combout [5] $end
$var wire 1 s" R3~combout [4] $end
$var wire 1 t" R3~combout [3] $end
$var wire 1 u" R3~combout [2] $end
$var wire 1 v" R3~combout [1] $end
$var wire 1 w" R3~combout [0] $end
$upscope $end
$upscope $end
$enddefinitions $end
#0
$dumpvars
b0 !
b1111101000 "
b1110100010010000 #
b0 $
04
03
02
01
00
0/
0.
0-
0,
0+
0*
0)
0(
0'
0&
0%
1D
1C
1B
1A
0@
1?
1>
0=
1<
1;
1:
09
18
07
06
05
0T
0S
0R
0Q
1P
1O
1N
0M
1L
1K
1J
0I
1H
0G
0F
0E
0d
0c
0b
0a
1`
0_
0^
1]
0\
0[
0Z
1Y
0X
1W
1V
1U
0t
0s
0r
0q
1p
1o
1n
0m
1l
1k
1j
0i
1h
0g
0f
0e
xu
0v
1w
xx
1y
1z
1{
1|
0}
1~
1!!
0"!
1#!
0$!
1%!
0&!
0'!
0(!
0)!
1*!
0+!
0,!
0-!
0.!
0/!
00!
01!
12!
03!
04!
05!
16!
07!
18!
09!
0:!
0;!
0<!
1=!
0>!
1?!
0@!
1A!
1B!
1C!
0D!
1E!
1F!
1G!
1H!
1I!
1J!
1K!
0L!
1M!
1N!
1O!
0P!
1Q!
1R!
1S!
1T!
0U!
0V!
0W!
0X!
1Y!
0Z!
0[!
0\!
1]!
0^!
0_!
0`!
0a!
0b!
0c!
0d!
0e!
0f!
1g!
0h!
1i!
1j!
1k!
0l!
1m!
1n!
1o!
0p!
0q!
0r!
0s!
0%"
0$"
0#"
0""
1!"
0~!
0}!
1|!
0{!
0z!
0y!
1x!
0w!
1v!
1u!
1t!
0'"
0&"
17"
16"
15"
14"
13"
12"
11"
10"
1/"
1."
1-"
1,"
1+"
1*"
1)"
1("
0G"
0F"
0E"
1D"
0C"
1B"
1A"
1@"
1?"
1>"
0="
0<"
0;"
0:"
09"
08"
0W"
0V"
0U"
0T"
1S"
0R"
0Q"
1P"
0O"
0N"
0M"
1L"
0K"
1J"
1I"
1H"
zg"
zf"
0e"
1d"
0c"
zb"
1a"
1`"
1_"
1^"
0]"
0\"
0["
0Z"
0Y"
zX"
0w"
0v"
0u"
0t"
0s"
0r"
0q"
0p"
0o"
0n"
0m"
0l"
0k"
0j"
0i"
0h"
$end
#10000
b1110110010010000 #
b1110110000010000 #
b1110110001010000 #
b1110110001110000 #
b1110110001111000 #
1""
1~!
1}!
0|!
1y!
0u
1$!
1T"
1^!
1R"
1(!
1Q"
0*!
0P"
10!
1M"
0%!
1V!
0R!
0M!
1L!
0F!
1a
1_
1^
0]
1Z
0A
0?
0>
1=
0:
0S!
1p!
0n!
0N!
1l!
0i!
1Q
0O
1M
0J
0T!
0m!
1q
0o
0N
1m
0j
0o!
0P
0n
0p
#20000
b11111101000 "
b11111001000 "
b11111011000 "
b11111010000 "
b1111110001111000 #
b1111010001111000 #
b1111010001101000 #
b100000000 $
b110000000 $
b111000000 $
b111100000 $
b111110000 $
b111110100 $
b1111000001101000 #
b1111000001100000 #
1u"
1s"
1r"
1q"
1p"
1o"
0""
0!"
0y!
0x!
1w!
0D"
1C"
0B"
1="
1u
0O!
0S"
0$!
0T"
00!
0M"
02!
0L"
14!
1K"
0d"
1c"
0|
1]"
1S!
1%!
0V!
1F!
1D!
0A!
0`
0a
0Z
0Y
1X
1@
1A
1:
19
08
1T!
0S!
1P!
1&!
0p!
1i!
1h!
0B!
0Q
1J
1I
1o!
0T!
0Q!
0g!
1P
0q
1j
1i
0H
0o!
1R!
1p
0P
0h
1n!
0p
1O
1o
#30000
b1111000001000000 #
b1111010001000000 #
b1111010001001000 #
1""
0~!
1y!
0u
1$!
1T"
0^!
0R"
10!
1M"
0%!
1V!
1'!
0R!
0F!
1a
0_
1Z
0A
1?
0:
1S!
0P!
0&!
1p!
1M!
0n!
0i!
1Q
0O
0J
1T!
1Q!
0'!
1N!
1q
0o
0j
1o!
1R!
0M!
1m!
1P
1N
1n!
0N!
1p
1O
1n
0m!
1o
0N
0n
#40000
b111111010000 "
b111110010000 "
b1111110100 $
b1111111100 $
b1111010000001000 #
b101110010000 "
b101110110000 "
b101110111000 "
b1111110000001000 #
b1111110000011000 #
b1111101100 $
b1111101000 $
b1111110000111000 #
b1111100000111000 #
b1111100000110000 #
0""
1!"
1~!
0}!
0y!
1x!
0u"
1t"
0s"
1n"
1D"
1B"
0A"
0="
1<"
1u
0$!
0T"
1O!
1S"
1^!
1R"
0(!
0Q"
00!
0M"
12!
1L"
1d"
1|
0a"
0]"
1\"
1%!
0V!
0S!
0R!
1M!
1F!
0D!
0a
1`
1_
0^
0Z
1Y
1A
0@
0?
1>
1:
09
1S!
0p!
0T!
0n!
1N!
1i!
0h!
0Q
0O
1J
0I
1T!
0o!
1m!
0q
0P
0o
1N
1j
0i
1o!
1P
0p
1n
1p
#50000
b1111100000010000 #
b1111110000010000 #
b1111110000011000 #
1""
0~!
1y!
0u
1$!
1T"
0^!
0R"
10!
1M"
0%!
1V!
1R!
0F!
1a
0_
1Z
0A
1?
0:
0S!
1p!
1n!
0i!
1Q
1O
0J
0T!
1q
1o
0j
0o!
0P
0p
#60000
b111110000011000 #
b11110000011000 #
b1110000011000 #
b11111101000 $
b101110101000 "
b110000011000 #
b11111001000 $
b10111001000 $
b111110101000 "
b111110100000 "
b10000011000 #
b10000001000 #
b10111011000 $
b10111011100 $
b1000 #
b0 #
0D"
0C"
1="
1u"
1s"
0r"
0n"
1m"
0""
0!"
0y!
0x!
0w!
0v!
0u!
0t!
1u
0d"
0c"
1]"
0O!
0S"
00!
0M"
0$!
0T"
02!
0L"
04!
0K"
06!
0J"
08!
0I"
0]!
0H"
1%!
1S!
1F!
0V!
1D!
1A!
1@!
1>!
1c!
1;!
0`
0Z
0a
0Y
0X
0W
0V
0U
1@
1:
1A
19
18
17
16
15
0S!
1P!
1&!
1T!
0p!
1B!
0n!
0m!
0l!
0k!
0j!
1<!
1J
0Q
1I
1G
1F
0T!
0Q!
1'!
1P
0q
1H
0o
0n
0m
0l
0k
1E
0R!
0M!
1)!
0P
0N!
0K!
1+!
0O
0L!
0I!
1-!
0N
0J!
0G!
1/!
0M
0H!
0E!
11!
0L
0F!
0C!
13!
0K
0D!
0A!
15!
0J
0B!
0?!
17!
0I
0@!
0=!
19!
0H
0>!
0c!
0;!
0G
0<!
0F
0E
#70000
b1000000000 #
b1100000000 #
b1110000000 #
b1111000000 #
b1111100000 #
b1111101000 #
1""
1~!
1}!
1|!
1{!
1z!
0u
1$!
1T"
1^!
1R"
1(!
1Q"
1*!
1P"
1,!
1O"
1.!
1N"
0%!
1V!
0'!
1R!
1M!
0)!
0+!
1L!
1I!
0-!
0/!
1H!
1a
1_
1^
1]
1\
1[
0A
0?
0>
0=
0<
0;
1S!
0P!
0&!
1p!
0M!
1n!
1N!
1K!
0I!
1l!
1J!
1G!
1E!
01!
1j!
1Q
1O
1M
1K
1T!
1Q!
0N!
1m!
0L!
0J!
1k!
0H!
1F!
1C!
03!
1q
1o
1N
1m
1L
1k
1o!
0R!
0m!
0l!
0k!
0j!
1i!
1D!
1A!
05!
1P
0N
1n
0M
0L
1l
0K
1J
0n!
1h!
1B!
1?!
07!
1p
0O
0n
0m
0l
0k
1j
1I
1g!
1@!
1=!
09!
0o
1i
1H
1f!
1>!
1c!
1;!
1h
1G
0o!
1n!
1m!
1l!
1k!
1j!
0i!
0h!
0g!
0f!
1<!
1g
1F
0p
1o
1n
1m
1l
1k
0j
0i
0h
0g
1E
#80000
b1111110100000 "
b1011110100000 "
b10111010100 $
b1011110000000 "
b11111010100 $
b1001110000000 "
b1001110001000 "
b1111111000 #
b11111010000 $
b11111111000 #
b11111011000 #
b11111010000 #
0""
1!"
0~!
1y!
0u"
0t"
1n"
1D"
0B"
0="
0<"
1;"
1u
0$!
0T"
1O!
1S"
0^!
0R"
10!
1M"
1d"
0|
0]"
0\"
1["
0p!
1%!
0V!
1o!
0S!
0n!
1R!
1i!
0F!
0a
1`
0_
1Z
1A
0@
1?
0:
1S!
0T!
0q
0Q
1p
0o
1O
1j
0J
1T!
0P
1P
#90000
b111111010000 #
b111110010000 #
b101110010000 #
b101110110000 #
b101110111000 #
1""
1~!
0}!
0y!
1x!
0u
1$!
1T"
1^!
1R"
0(!
0Q"
00!
0M"
12!
1L"
1p!
0%!
1V!
1n!
0R!
0m!
1M!
0i!
1F!
1h!
0D!
1a
1_
0^
0Z
1Y
0A
0?
1>
1:
09
0S!
1N!
1q
1Q
1o
0O
0n
0j
1J
1i
0I
0T!
1N
0P
#100000
b1 !
b1001100001000 "
b101110111100 #
b111111010000 $
b1001101001000 "
b10101110111100 #
b101111010000 $
b1001101011000 "
b101111000000 $
b10100110111100 #
b10100100111100 #
b1001101111000 "
b100111000000 $
b1011101111000 "
b1011101110000 "
b100111000100 $
b10000100111100 #
b10010100111100 #
b10010100011100 #
1u"
0s"
0n"
0m"
1l"
1#"
0~!
0|!
0z!
1y!
0x!
1v!
0D"
1C"
1B"
1A"
0@"
1="
1'"
1u
1"!
0S"
0.!
10!
02!
0^!
0*!
16!
1U!
04"
0K!
00"
1b!
1\!
1e"
0_"
0C!
0["
0?!
0=!
0~
1}
1W"
1V"
0T"
1Q"
0O"
1K"
1I"
1H"
07"
06"
05"
0,"
0*"
0)"
0("
0^"
1\"
1Z"
1Y"
1q!
1W!
0j!
1i!
0h!
0n!
0l!
1f!
17!
1L!
0c!
1I!
1D!
0A!
0@!
1S!
0M!
1%!
0\!
1~
1b
0[
1Z
0Y
0_
0]
1W
1T
1@
11
1-
0D
0C
1A
0>
1<
08
06
05
14
13
12
1)
1'
1&
1%
1X!
1=!
19!
1l!
0q!
0o!
1m!
0k!
1h!
1g!
0f!
1e!
1d!
1J!
0B!
1T!
0N!
0S!
1P!
1&!
1r
0k
1j
0i
0o
0m
1g
1M
1I
0G
0T
1q!
0>!
0;!
1k!
0g!
1o!
0m!
0T!
0Q!
1R
1m
0r
0p
1n
0l
1i
1h
0g
1f
1e
1L
0H
1P
0N
0e!
0d!
0<!
0o!
1R!
1r
0F
1l
0h
1p
0n
0P
1n!
0f
0e
0E
0p
1O
1o
#120000
b11 !
b100110000100 $
b100110100100 $
b10010000011100 #
b1111101110000 "
b100110101100 $
b10010001011100 #
b10 !
b10010001011000 #
b100110111100 $
b10011001011000 #
b10011011011000 #
b1111101010000 "
b101110111100 $
b1101101010000 "
b1101101011000 "
b101110111000 $
b10111011011000 #
b10101011011000 #
b10101011111000 #
1D"
0B"
0="
1<"
0#"
1~!
1}!
1|!
0{!
1z!
0y!
1x!
0u"
1t"
1s"
1r"
0q"
1n"
0'"
1&"
0u
0"!
1U"
1^!
0R"
1*!
0P"
1.!
0N"
00!
1M"
12!
0L"
0Y!
0e"
1a"
1K!
1_"
0G!
1["
1?!
0=!
06!
1c"
1J"
17"
16"
15"
03"
01"
10"
0/"
0."
0+"
1*"
1)"
1("
0`"
1^"
0Z"
0Y"
0#!
1'!
0R!
1/!
0F!
13!
0D!
0!!
1M!
0I!
1-!
1A!
1>!
07!
1S!
1;!
09!
0b
1_
1]
1[
0Z
1Y
0W
0B
1?
1=
1;
0:
19
07
04
03
02
10
1.
0-
1,
1+
1(
0'
0&
0%
0U!
0M!
1)!
0n!
0E!
0i!
0A!
15!
0h!
0W!
1N!
0J!
1G!
1B!
1e!
1=!
1T!
1d!
1<!
0;!
0O
0J
0I
1F
0V!
0N!
0K!
1+!
1F!
0B!
0?!
0X!
1m!
0k!
1H!
1g!
0>!
1o!
0d!
0<!
0o
0j
0i
1N
0L
1H
1f
1P
1e
1E
0p!
0m!
0L!
1I!
1i!
0g!
1@!
0q!
1j!
0e!
0Q
0N
1J
0H
0R
1n
0l
1K
1h
0F
1p
0e
0E
0l!
1J!
1f!
0q
0n
0M
1j
0h
1G
0r
1k
0f
1k!
0m
1L
1g
1l
#140000
b11101011111000 #
b11101011110000 #
b111110111000 $
b1101101001000 "
b11 !
b11101011110100 #
b111110101000 $
b11100011110100 #
b110110101000 $
b1111101001000 "
b1111101000000 "
b110110101100 $
b11000011110100 #
b11000011010100 #
1'"
0D"
0C"
1="
1u"
0s"
0n"
1m"
1#"
0""
0~!
0z!
0x!
1w!
1u
0b!
0^!
1Y!
1e"
0T!
1Q!
1N!
0a"
1K!
0_"
0G!
1C!
1B!
0["
1?!
0=!
1:!
16!
14!
02!
0.!
0,!
1(!
0$!
1"!
1|
0U"
1T"
1R"
0Q"
1O"
1N"
1L"
0K"
0J"
07"
06"
05"
02"
11"
00"
1/"
1."
1,"
1+"
0*"
0)"
0("
1`"
0^"
0\"
1Z"
1Y"
1c!
1!!
1#!
0o!
1m!
0-!
1D!
1g!
0@!
17!
03!
0/!
0%!
0_
0P
1N
1H
1W
1X
0Y
0[
0\
1^
0a
1b
1B
0A
0?
1>
0<
0;
09
18
17
14
13
12
1/
0.
1-
0,
0+
0)
0(
1'
1&
1%
1q!
1o!
1l!
0k!
0j!
0i!
1W!
1U!
1%!
1G!
1=!
19!
1A!
05!
1E!
0S!
0p
1n
1I
1h
0G
1S!
0c!
0?!
1r
1p
1m
0l
0k
0j
0q!
0o!
0l!
1k!
1j!
1i!
1h!
0f!
0r
0p
0m
1l
1k
1j
1i
0g
#160000
b11111101000000 "
b10111101000000 "
b10111100000000 "
b1 !
b10011100000000 "
b110110100100 $
b11000010010100 #
b10011100100000 "
b11010010010100 #
b0 !
b11010010010000 #
b11011010010000 #
b111110100100 $
b10001100100000 "
b10001100101000 "
b111110100000 $
b11011010110000 #
0#"
1~!
0}!
1z!
1y!
0u"
0t"
1n"
0'"
0&"
1D"
1B"
0A"
0="
0<"
0;"
1:"
0u
0"!
1^!
0(!
1.!
10!
0T"
1\!
1X!
0e"
0U!
1T!
0Q!
0N!
0K!
1_"
1?!
0=!
0:!
0c"
0}
0W"
0V"
1S"
1P"
0O"
0L"
1K"
1J"
0I"
0H"
17"
16"
15"
14"
13"
12"
10"
1*"
1)"
1("
0`"
1^"
0Y"
1V!
1R!
0F!
0D!
1@!
1q!
0W!
1n!
0'!
0m!
0i!
0V!
1s!
1o!
1L!
0I!
1-!
0@!
0H!
1D!
0P!
0&!
0A!
07!
0+!
0\!
1p!
0h!
1f!
0b
1_
0^
1[
1Z
1T
1R
1P
0N
1Q
1O
0J
0I
1G
1A
1D
1C
0@
0=
1<
19
08
07
16
15
04
03
02
01
00
0/
0-
0'
0&
0%
0X!
1M!
0)!
0p!
1l!
0J!
0G!
0f!
0j!
1h!
1Q!
0B!
1=!
09!
1I!
0-!
0s!
1r
1o
0n
0j
0Q
1t
1p
1M
0G
0K
1I
0T
1q
0i
1g
0q!
1N!
1K!
0k!
1H!
0R!
0g!
1>!
1c!
1;!
1J!
1G!
0R
0q
1m
0L
0g
0k
1i
0H
0t
0L!
1j!
1i!
0h!
1g!
1f!
1<!
0H!
0r
1N
0l
1K
0O
0h
1F
1L
0M
1k
1j
0i
1h
1g
1E
0K
