project_SRA/design_logic/module componet/RegisterFile/simulation/qsim/RegisterFile.msim.vcd
$comment
	File created using the following command:
		vcd file RegisterFile.msim.vcd -direction
$end
$date
	Sat Jun 18 23:26:35 2022
$end
$version
	ModelSim Version 10.1d
$end
$timescale
	1ps
$end
$scope module Reg16Sharing_vlg_vec_tst $end
$var reg 1 ! CLK $end
$var reg 16 " I [15:0] $end
$var reg 1 # RE $end
$var reg 1 $ WE $end
$var wire 1 % O [15] $end
$var wire 1 & O [14] $end
$var wire 1 ' O [13] $end
$var wire 1 ( O [12] $end
$var wire 1 ) O [11] $end
$var wire 1 * O [10] $end
$var wire 1 + O [9] $end
$var wire 1 , O [8] $end
$var wire 1 - O [7] $end
$var wire 1 . O [6] $end
$var wire 1 / O [5] $end
$var wire 1 0 O [4] $end
$var wire 1 1 O [3] $end
$var wire 1 2 O [2] $end
$var wire 1 3 O [1] $end
$var wire 1 4 O [0] $end
$var wire 1 5 sampler $end
$scope module i1 $end
$var wire 1 6 gnd $end
$var wire 1 7 vcc $end
$var wire 1 8 unknown $end
$var tri1 1 9 devclrn $end
$var tri1 1 : devpor $end
$var tri1 1 ; devoe $end
$var wire 1 < CLK~combout $end
$var wire 1 = WE~combout $end
$var wire 1 > Register0|instReg00|instRFC6|inst~regout $end
$var wire 1 ? RE~combout $end
$var wire 1 @ Register0|instReg00|instRFC5|inst~regout $end
$var wire 1 A Register0|instReg00|instRFC4|inst~regout $end
$var wire 1 B Register0|instReg00|instRFC3|inst~regout $end
$var wire 1 C Register0|instReg00|instRFC2|inst~regout $end
$var wire 1 D Register0|instReg00|instRFC1|inst~regout $end
$var wire 1 E Register0|instReg00|instRFC0|inst~regout $end
$var wire 1 F Register0|instReg00|instRFC00|inst~regout $end
$var wire 1 G Register0|instReg0|instRFC6|inst~regout $end
$var wire 1 H Register0|instReg0|instRFC5|inst~regout $end
$var wire 1 I Register0|instReg0|instRFC4|inst~regout $end
$var wire 1 J Register0|instReg0|instRFC3|inst~regout $end
$var wire 1 K Register0|instReg0|instRFC2|inst~regout $end
$var wire 1 L Register0|instReg0|instRFC1|inst~regout $end
$var wire 1 M Register0|instReg0|instRFC0|inst~regout $end
$var wire 1 N Register0|instReg0|instRFC00|inst~regout $end
$var wire 1 O I~combout [15] $end
$var wire 1 P I~combout [14] $end
$var wire 1 Q I~combout [13] $end
$var wire 1 R I~combout [12] $end
$var wire 1 S I~combout [11] $end
$var wire 1 T I~combout [10] $end
$var wire 1 U I~combout [9] $end
$var wire 1 V I~combout [8] $end
$var wire 1 W I~combout [7] $end
$var wire 1 X I~combout [6] $end
$var wire 1 Y I~combout [5] $end
$var wire 1 Z I~combout [4] $end
$var wire 1 [ I~combout [3] $end
$var wire 1 \ I~combout [2] $end
$var wire 1 ] I~combout [1] $end
$var wire 1 ^ I~combout [0] $end
$upscope $end
$upscope $end
$enddefinitions $end
#0
$dumpvars
0!
b1111 "
0#
1$
z4
z3
z2
z1
z0
z/
z.
z-
z,
z+
z*
z)
z(
z'
z&
z%
x5
06
17
x8
19
1:
1;
0<
1=
0>
0?
0@
0A
0B
0C
0D
0E
0F
0G
0H
0I
0J
0K
0L
0M
0N
1^
1]
1\
1[
0Z
0Y
0X
0W
0V
0U
0T
0S
0R
0Q
0P
0O
$end
#10000
1!
b111 "
b11 "
b1 "
b0 "
0$
1<
0^
0]
0\
0[
0=
05
#20000
0!
0<
15
#30000
1#
1!
1?
1<
05
04
03
02
01
00
0/
0.
0-
0,
0+
0*
0)
0(
0'
0&
0%
#40000
0!
0<
15
#50000
0#
1!
0?
1<
05
z4
z3
z2
z1
z0
z/
z.
z-
z,
z+
z*
z)
z(
z'
z&
z%
#60000
0!
0<
15
#70000
b100 "
b110 "
b111 "
1$
1#
1!
1^
1]
1\
1=
1?
1<
05
04
03
02
01
00
0/
0.
0-
0,
0+
0*
0)
0(
0'
0&
0%
1N
1M
1L
14
13
12
#80000
0!
0<
15
#90000
b11 "
b1 "
b0 "
0$
0#
1!
0^
0]
0\
0=
0?
1<
05
z4
z3
z2
z1
z0
z/
z.
z-
z,
z+
z*
z)
z(
z'
z&
z%
#100000
0!
0<
15
#110000
b1000000000000000 "
b1100000000000000 "
b1110000000000000 "
b1111000000000000 "
b1111100000000000 "
b1111110000000000 "
b1111111000000000 "
b1111111100000000 "
b1111111110000000 "
b1111111111000000 "
b1111111111100000 "
b1111111111110000 "
b1111111111111000 "
b1111111111111100 "
b1111111111111110 "
b1111111111111111 "
1$
1!
1^
1]
1\
1[
1Z
1Y
1X
1W
1V
1U
1T
1S
1R
1Q
1P
1O
1=
1<
05
1K
1J
1I
1H
1G
1F
1E
1D
1C
1B
1A
1@
1>
#120000
0!
0<
15
#130000
1#
b111111111111111 "
b11111111111111 "
b1111111111111 "
b111111111111 "
b11111111111 "
b1111111111 "
b111111111 "
b11111111 "
b1111111 "
b111111 "
b11111 "
b1111 "
b111 "
b11 "
b1 "
b0 "
0$
1!
1?
0^
0]
0\
0[
0Z
0Y
0X
0W
0V
0U
0T
0S
0R
0Q
0P
0O
0=
1<
05
14
13
12
11
10
1/
1.
1-
1,
1+
1*
1)
1(
1'
1&
1%
#140000
0!
0<
15
#150000
0#
1!
0?
1<
05
z4
z3
z2
z1
z0
z/
z.
z-
z,
z+
z*
z)
z(
z'
z&
z%
#160000
0!
0<
15
#170000
1!
1<
05
#180000
0!
0<
15
#190000
1!
1<
05
#200000
0!
0<
15
#210000
1!
1<
05
#220000
0!
0<
15
#230000
1!
1<
05
#240000
0!
0<
15
#250000
1!
1<
05
#260000
0!
0<
15
#270000
1!
1<
05
#280000
0!
0<
15
#290000
1!
1<
05
#300000
0!
0<
15
#310000
1!
1<
05
#320000
0!
0<
15
#330000
1!
1<
05
#340000
0!
0<
15
#350000
1!
1<
05
#360000
0!
0<
15
#370000
1!
1<
05
#380000
0!
0<
15
#390000
1!
1<
05
#400000
0!
0<
15
#410000
1!
1<
05
#420000
0!
0<
15
#430000
1!
1<
05
#440000
0!
0<
15
#450000
1!
1<
05
#460000
0!
0<
15
#470000
1!
1<
05
#480000
0!
0<
15
#490000
1!
1<
05
#500000
0!
0<
15
#510000
1!
1<
05
#520000
0!
0<
15
#530000
1!
1<
05
#540000
0!
0<
15
#550000
1!
1<
05
#560000
0!
0<
15
#570000
1!
1<
05
#580000
0!
0<
15
#590000
1!
1<
05
#600000
0!
0<
15
#610000
1!
1<
05
#620000
0!
0<
15
#630000
1!
1<
05
#640000
0!
0<
15
#650000
1!
1<
05
#660000
0!
0<
15
#670000
1!
1<
05
#680000
0!
0<
15
#690000
1!
1<
05
#700000
0!
0<
15
#710000
1!
1<
05
#720000
0!
0<
15
#730000
1!
1<
05
#740000
0!
0<
15
#750000
1!
1<
05
#760000
0!
0<
15
#770000
1!
1<
05
#780000
0!
0<
15
#790000
1!
1<
05
#800000
0!
0<
15
#810000
1!
1<
05
#820000
0!
0<
15
#830000
1!
1<
05
#840000
0!
0<
15
#850000
1!
1<
05
#860000
0!
0<
15
#870000
1!
1<
05
#880000
0!
0<
15
#890000
1!
1<
05
#900000
0!
0<
15
#910000
1!
1<
05
#920000
0!
0<
15
#930000
1!
1<
05
#940000
0!
0<
15
#950000
1!
1<
05
#960000
0!
0<
15
#970000
1!
1<
05
#980000
0!
0<
15
#990000
1!
1<
05
