project_SRA/design_logic/lib/Decode/simulation/qsim/Decode.msim.vcd
$comment
	File created using the following command:
		vcd file Decode.msim.vcd -direction
$end
$date
	Sat Jun 04 15:39:10 2022
$end
$version
	ModelSim Version 10.1d
$end
$timescale
	1ps
$end
$scope module Decode4To10_vlg_vec_tst $end
$var reg 4 ! I [3:0] $end
$var wire 1 " O [9] $end
$var wire 1 # O [8] $end
$var wire 1 $ O [7] $end
$var wire 1 % O [6] $end
$var wire 1 & O [5] $end
$var wire 1 ' O [4] $end
$var wire 1 ( O [3] $end
$var wire 1 ) O [2] $end
$var wire 1 * O [1] $end
$var wire 1 + O [0] $end
$var wire 1 , sampler $end
$scope module i1 $end
$var wire 1 - gnd $end
$var wire 1 . vcc $end
$var wire 1 / unknown $end
$var tri1 1 0 devclrn $end
$var tri1 1 1 devpor $end
$var tri1 1 2 devoe $end
$var wire 1 3 inst7~combout $end
$var wire 1 4 inst6~combout $end
$var wire 1 5 inst5~combout $end
$var wire 1 6 inst4~combout $end
$var wire 1 7 instAND0~combout $end
$var wire 1 8 inst12~combout $end
$var wire 1 9 inst11~combout $end
$var wire 1 : inst10~combout $end
$var wire 1 ; inst9~combout $end
$var wire 1 < inst8~combout $end
$var wire 1 = I~combout [3] $end
$var wire 1 > I~combout [2] $end
$var wire 1 ? I~combout [1] $end
$var wire 1 @ I~combout [0] $end
$upscope $end
$upscope $end
$enddefinitions $end
#0
$dumpvars
b0 !
1+
0*
0)
0(
0'
0&
0%
0$
0#
0"
x,
0-
1.
x/
10
11
12
03
04
05
06
07
08
09
0:
0;
1<
0@
0?
0>
0=
$end
#10000
b1 !
1@
0,
0<
1;
0+
1*
#20000
b11 !
b10 !
0@
1?
1,
0;
1:
0*
1)
#30000
b11 !
1@
0,
0:
19
0)
1(
#40000
b111 !
b101 !
b100 !
0@
0?
1>
1,
09
18
0(
1'
#50000
b101 !
1@
0,
08
17
0'
1&
#60000
b111 !
b110 !
0@
1?
1,
07
16
0&
1%
#70000
b111 !
1@
0,
06
15
0%
1$
#80000
b1111 !
b1011 !
b1001 !
b1000 !
0@
0?
0>
1=
1,
05
14
0$
1#
#90000
b1001 !
1@
0,
04
13
0#
1"
#100000
b1011 !
b1010 !
0@
1?
1,
03
0"
#110000
b1011 !
1@
0,
#120000
b1111 !
b1101 !
b1100 !
0@
0?
1>
1,
#130000
b1101 !
1@
0,
#140000
b1111 !
b1110 !
0@
1?
1,
#150000
b1111 !
1@
0,
#160000
b111 !
b11 !
b1 !
b0 !
0@
0?
0>
0=
1,
1<
1+
#170000
b1 !
1@
0,
0<
1;
0+
1*
#180000
b11 !
b10 !
0@
1?
1,
0;
1:
0*
1)
#190000
b11 !
1@
0,
0:
19
0)
1(
#200000
b111 !
b101 !
b100 !
0@
0?
1>
1,
09
18
0(
1'
#210000
b101 !
1@
0,
08
17
0'
1&
#220000
b111 !
b110 !
0@
1?
1,
07
16
0&
1%
#230000
b111 !
1@
0,
06
15
0%
1$
#240000
b1111 !
b1011 !
b1001 !
b1000 !
0@
0?
0>
1=
1,
05
14
0$
1#
#250000
b1001 !
1@
0,
04
13
0#
1"
#260000
b1011 !
b1010 !
0@
1?
1,
03
0"
#270000
b1011 !
1@
0,
#280000
b1111 !
b1101 !
b1100 !
0@
0?
1>
1,
#290000
b1101 !
1@
0,
#300000
b1111 !
b1110 !
0@
1?
1,
#310000
b1111 !
1@
0,
#320000
b111 !
b11 !
b1 !
b0 !
0@
0?
0>
0=
1,
1<
1+
#330000
b1 !
1@
0,
0<
1;
0+
1*
#340000
b11 !
b10 !
0@
1?
1,
0;
1:
0*
1)
#350000
b11 !
1@
0,
0:
19
0)
1(
#360000
b111 !
b101 !
b100 !
0@
0?
1>
1,
09
18
0(
1'
#370000
b101 !
1@
0,
08
17
0'
1&
#380000
b111 !
b110 !
0@
1?
1,
07
16
0&
1%
#390000
b111 !
1@
0,
06
15
0%
1$
#400000
b1111 !
b1011 !
b1001 !
b1000 !
0@
0?
0>
1=
1,
05
14
0$
1#
#410000
b1001 !
1@
0,
04
13
0#
1"
#420000
b1011 !
b1010 !
0@
1?
1,
03
0"
#430000
b1011 !
1@
0,
#440000
b1111 !
b1101 !
b1100 !
0@
0?
1>
1,
#450000
b1101 !
1@
0,
#460000
b1111 !
b1110 !
0@
1?
1,
#470000
b1111 !
1@
0,
#480000
b111 !
b11 !
b1 !
b0 !
0@
0?
0>
0=
1,
1<
1+
#490000
b1 !
1@
0,
0<
1;
0+
1*
#500000
b11 !
b10 !
0@
1?
1,
0;
1:
0*
1)
#510000
b11 !
1@
0,
0:
19
0)
1(
#520000
b111 !
b101 !
b100 !
0@
0?
1>
1,
09
18
0(
1'
#530000
b101 !
1@
0,
08
17
0'
1&
#540000
b111 !
b110 !
0@
1?
1,
07
16
0&
1%
#550000
b111 !
1@
0,
06
15
0%
1$
#560000
b1111 !
b1011 !
b1001 !
b1000 !
0@
0?
0>
1=
1,
05
14
0$
1#
#570000
b1001 !
1@
0,
04
13
0#
1"
#580000
b1011 !
b1010 !
0@
1?
1,
03
0"
#590000
b1011 !
1@
0,
#600000
b1111 !
b1101 !
b1100 !
0@
0?
1>
1,
#610000
b1101 !
1@
0,
#620000
b1111 !
b1110 !
0@
1?
1,
#630000
b1111 !
1@
0,
#640000
b111 !
b11 !
b1 !
b0 !
0@
0?
0>
0=
1,
1<
1+
#650000
b1 !
1@
0,
0<
1;
0+
1*
#660000
b11 !
b10 !
0@
1?
1,
0;
1:
0*
1)
#670000
b11 !
1@
0,
0:
19
0)
1(
#680000
b111 !
b101 !
b100 !
0@
0?
1>
1,
09
18
0(
1'
#690000
b101 !
1@
0,
08
17
0'
1&
#700000
b111 !
b110 !
0@
1?
1,
07
16
0&
1%
#710000
b111 !
1@
0,
06
15
0%
1$
#720000
b1111 !
b1011 !
b1001 !
b1000 !
0@
0?
0>
1=
1,
05
14
0$
1#
#730000
b1001 !
1@
0,
04
13
0#
1"
#740000
b1011 !
b1010 !
0@
1?
1,
03
0"
#750000
b1011 !
1@
0,
#760000
b1111 !
b1101 !
b1100 !
0@
0?
1>
1,
#770000
b1101 !
1@
0,
#780000
b1111 !
b1110 !
0@
1?
1,
#790000
b1111 !
1@
0,
#800000
b111 !
b11 !
b1 !
b0 !
0@
0?
0>
0=
1,
1<
1+
#810000
b1 !
1@
0,
0<
1;
0+
1*
#820000
b11 !
b10 !
0@
1?
1,
0;
1:
0*
1)
#830000
b11 !
1@
0,
0:
19
0)
1(
#840000
b111 !
b101 !
b100 !
0@
0?
1>
1,
09
18
0(
1'
#850000
b101 !
1@
0,
08
17
0'
1&
#860000
b111 !
b110 !
0@
1?
1,
07
16
0&
1%
#870000
b111 !
1@
0,
06
15
0%
1$
#880000
b1111 !
b1011 !
b1001 !
b1000 !
0@
0?
0>
1=
1,
05
14
0$
1#
#890000
b1001 !
1@
0,
04
13
0#
1"
#900000
b1011 !
b1010 !
0@
1?
1,
03
0"
#910000
b1011 !
1@
0,
#920000
b1111 !
b1101 !
b1100 !
0@
0?
1>
1,
#930000
b1101 !
1@
0,
#940000
b1111 !
b1110 !
0@
1?
1,
#950000
b1111 !
1@
0,
#960000
b111 !
b11 !
b1 !
b0 !
0@
0?
0>
0=
1,
1<
1+
#970000
b1 !
1@
0,
0<
1;
0+
1*
#980000
b11 !
b10 !
0@
1?
1,
0;
1:
0*
1)
#990000
b11 !
1@
0,
0:
19
0)
1(
